%% Version 3.0
%% VertexNumber: 441
%% EdgeNumber: 1239
%% FaceNumber: 799
%% ElementNumber: 0
%% DO NOT CHANGE LINES ABOVE !!!!
% NET: Vertices <-> Edges <-> Faces <-> Elements
% Vertices: x y z
8.08192948433818287413e+02 6.00000000000000000000e+02 0.00000000000000000000e+00
7.74632598507623583828e+02 6.49087101577447583622e+02 0.00000000000000000000e+00
8.29680556535597474976e+02 4.92725873511131226223e+02 0.00000000000000000000e+00
7.37432002945183626252e+02 6.00000000000000000000e+02 0.00000000000000000000e+00
8.86296303409451070365e+02 5.27583974633602792892e+02 0.00000000000000000000e+00
7.57969441752831698977e+02 5.18081710577703120180e+02 0.00000000000000000000e+00
7.95231637970456404219e+02 4.48404164901838271362e+02 0.00000000000000000000e+00
6.90983537860266096686e+02 6.47839120041552405382e+02 0.00000000000000000000e+00
9.00000000000000000000e+02 6.00000000000000000000e+02 0.00000000000000000000e+00
8.37874163294976938232e+02 6.62125836705023061768e+02 0.00000000000000000000e+00
7.30193906531834727502e+02 6.94960271569033352534e+02 0.00000000000000000000e+00
7.95370575387714552562e+02 7.04629424612285447438e+02 0.00000000000000000000e+00
9.43794011681119627610e+02 5.56205988318880372390e+02 0.00000000000000000000e+00
6.81307165412800145532e+02 5.14643450232920940834e+02 0.00000000000000000000e+00
7.14152041040916628845e+02 4.41399119505651299278e+02 0.00000000000000000000e+00
8.70277977859039424402e+02 4.51859423825955104803e+02 0.00000000000000000000e+00
9.19538715936646667615e+02 4.85480926687000078346e+02 0.00000000000000000000e+00
6.52804792262750083864e+02 6.00000000000000000000e+02 0.00000000000000000000e+00
8.15407207289684265561e+02 7.54262367010735601980e+02 0.00000000000000000000e+00
9.80254922905312923831e+02 6.00000000000000000000e+02 0.00000000000000000000e+00
7.42865508544718409212e+02 7.57134491455281590788e+02 0.00000000000000000000e+00
6.75328272999744399385e+02 7.14090942536696275056e+02 0.00000000000000000000e+00
9.71414054767290622294e+02 6.54881816654212911999e+02 0.00000000000000000000e+00
9.87797011859296731018e+02 5.12202988140703268982e+02 0.00000000000000000000e+00
9.71920638342132406251e+02 4.53119869992552139593e+02 0.00000000000000000000e+00
7.62135777246734164692e+02 4.00000000000000000000e+02 0.00000000000000000000e+00
8.97770551375787590587e+02 7.38314925510783382379e+02 0.00000000000000000000e+00
6.28966270913625635330e+02 6.55069335866992787487e+02 0.00000000000000000000e+00
6.44323184763922881757e+02 4.47005520107199401991e+02 0.00000000000000000000e+00
8.40075836965969983794e+02 4.00000000000000000000e+02 0.00000000000000000000e+00
6.07801030105010568150e+02 5.23833774224432318078e+02 0.00000000000000000000e+00
7.68576812480884086654e+02 8.00000000000000000000e+02 0.00000000000000000000e+00
1.03672158664837638753e+03 5.37587121951805897879e+02 0.00000000000000000000e+00
5.82341591158395544880e+02 6.00000000000000000000e+02 0.00000000000000000000e+00
9.29237226359273677190e+02 4.00000000000000000000e+02 0.00000000000000000000e+00
6.73122464874177580896e+02 4.00000000000000000000e+02 0.00000000000000000000e+00
5.81167657039918367445e+02 6.93530040857700669221e+02 0.00000000000000000000e+00
9.76642716969320417775e+02 7.45568956926905457294e+02 0.00000000000000000000e+00
1.04250292859204137130e+03 6.00000000000000000000e+02 0.00000000000000000000e+00
7.00000000000000000000e+02 8.00000000000000000000e+02 0.00000000000000000000e+00
1.03025215354450278937e+03 4.69747846455497210627e+02 0.00000000000000000000e+00
1.01276843692796262530e+03 7.01469093998600897066e+02 0.00000000000000000000e+00
8.52732860066298599122e+02 8.00000000000000000000e+02 0.00000000000000000000e+00
9.33199569088981775167e+02 8.00000000000000000000e+02 0.00000000000000000000e+00
9.88447062028832192482e+02 4.00000000000000000000e+02 0.00000000000000000000e+00
6.25261839819402894136e+02 7.44350562266922906929e+02 0.00000000000000000000e+00
1.02708948269890356642e+03 6.47399105214291239463e+02 0.00000000000000000000e+00
7.97595333892320695668e+02 3.29917203703003508508e+02 0.00000000000000000000e+00
5.70145819915492324981e+02 4.40157093910939465786e+02 0.00000000000000000000e+00
5.42638748199369047143e+02 6.38183557250691592344e+02 0.00000000000000000000e+00
7.18315983941952367786e+02 3.30578053510298843776e+02 0.00000000000000000000e+00
8.70652423404079172542e+02 3.12899776594710260724e+02 0.00000000000000000000e+00
5.29570589996575108671e+02 5.06876238333998685448e+02 0.00000000000000000000e+00
6.03023996374452167402e+02 4.00000000000000000000e+02 0.00000000000000000000e+00
6.26479689232046553116e+02 8.00000000000000000000e+02 0.00000000000000000000e+00
1.04191473004025510818e+03 7.55120871455695123586e+02 0.00000000000000000000e+00
1.07272727000000008957e+03 4.00000000000000000000e+02 0.00000000000000000000e+00
1.09645294940535882233e+03 5.30491159762453776239e+02 0.00000000000000000000e+00
1.07692309999999997672e+03 4.23076900000000023283e+02 0.00000000000000000000e+00
1.08975442368446124419e+03 7.07067647372364604053e+02 0.00000000000000000000e+00
6.51914086960195618303e+02 8.48085913039804381697e+02 0.00000000000000000000e+00
7.05898906090367859179e+02 8.55231414400749372362e+02 0.00000000000000000000e+00
9.43687145096749986806e+02 3.10795044598145921100e+02 0.00000000000000000000e+00
1.00382214342628833492e+03 8.00000000000000000000e+02 0.00000000000000000000e+00
9.56227127000163022785e+02 8.57095903887642634800e+02 0.00000000000000000000e+00
1.10909090999999989435e+03 6.00000000000000000000e+02 0.00000000000000000000e+00
7.57736494896352951400e+02 2.44718558019297915962e+02 0.00000000000000000000e+00
8.99879726370361595400e+02 8.77453715114264355179e+02 0.00000000000000000000e+00
8.16916317103927895005e+02 8.69259736871046470696e+02 0.00000000000000000000e+00
5.01160823020223574531e+02 6.00000000000000000000e+02 0.00000000000000000000e+00
5.19673284112124406420e+02 6.90229212870123660650e+02 0.00000000000000000000e+00
8.26497447472375029065e+02 2.46653087205298874096e+02 0.00000000000000000000e+00
6.44432231875009051691e+02 3.15132434224339363027e+02 0.00000000000000000000e+00
5.60644174891740021849e+02 7.47093611205778643125e+02 0.00000000000000000000e+00
1.12005569872366891104e+03 6.60306331949546915894e+02 0.00000000000000000000e+00
5.23826132293527507500e+02 4.00000000000000000000e+02 0.00000000000000000000e+00
6.93185642695772003208e+02 2.48748999827914275329e+02 0.00000000000000000000e+00
4.68700278345854428608e+02 6.53111899738534134485e+02 0.00000000000000000000e+00
1.01367820460807911331e+03 3.40505111039184100719e+02 0.00000000000000000000e+00
4.91120681579604877243e+02 4.47872975464320745687e+02 0.00000000000000000000e+00
8.96908662103582173586e+02 2.41851528533960845380e+02 0.00000000000000000000e+00
1.15426113492203944588e+03 5.43889694617235932128e+02 0.00000000000000000000e+00
5.65592511317622097522e+02 8.00000000000000000000e+02 0.00000000000000000000e+00
1.07628896513382937883e+03 8.00000000000000000000e+02 0.00000000000000000000e+00
4.55730176448448162319e+02 5.25419879740031888105e+02 0.00000000000000000000e+00
1.15209352197298994724e+03 4.80261501580120182098e+02 0.00000000000000000000e+00
1.10000000000000000000e+03 4.00000000000000000000e+02 0.00000000000000000000e+00
5.69552616333545870475e+02 3.05988933212188669586e+02 0.00000000000000000000e+00
1.02283833703465313647e+03 8.76588849126423042435e+02 0.00000000000000000000e+00
7.62745049846732399601e+02 9.18990669484223190011e+02 0.00000000000000000000e+00
6.19811227192311434919e+02 2.38230187865298148608e+02 0.00000000000000000000e+00
1.05800241979529550918e+03 3.19013309701454488732e+02 0.00000000000000000000e+00
4.85326910655111305459e+02 8.00000000000000000000e+02 0.00000000000000000000e+00
8.54557281293181290494e+02 9.51494478537871259505e+02 0.00000000000000000000e+00
1.17262204301604060674e+03 6.83218645452147370634e+02 0.00000000000000000000e+00
9.92740080075843479790e+02 2.54810026129286626428e+02 0.00000000000000000000e+00
5.77717328403004216852e+02 8.50818094716728978710e+02 0.00000000000000000000e+00
6.85969566623643572711e+02 9.30230280827474302896e+02 0.00000000000000000000e+00
6.08391998454863369261e+02 8.91608001545136630739e+02 0.00000000000000000000e+00
4.48615845834796118652e+02 4.00000000000000000000e+02 0.00000000000000000000e+00
1.13424780735905028450e+03 7.38362921638485090625e+02 0.00000000000000000000e+00
4.20238117750970388897e+02 6.00000000000000000000e+02 0.00000000000000000000e+00
9.63486913467249451060e+02 9.15203623471685887125e+02 0.00000000000000000000e+00
9.09419113046562870295e+02 9.35701083065645889292e+02 0.00000000000000000000e+00
7.36942000410138689404e+02 2.00000000000000000000e+02 0.00000000000000000000e+00
8.10627998057610852811e+02 2.00000000000000000000e+02 0.00000000000000000000e+00
1.14545454999999992651e+03 8.00000000000000000000e+02 0.00000000000000000000e+00
4.54661610403120562296e+02 7.35815490691316654193e+02 0.00000000000000000000e+00
1.17880099046013242514e+03 6.00000000000000000000e+02 0.00000000000000000000e+00
4.96817724331563624673e+02 3.19464701158478590060e+02 0.00000000000000000000e+00
1.17858283419571534978e+03 4.00000000000000000000e+02 0.00000000000000000000e+00
4.15941262323569105774e+02 4.44657319409171975622e+02 0.00000000000000000000e+00
8.71430460133635506281e+02 2.00000000000000000000e+02 0.00000000000000000000e+00
6.66383001324341421423e+02 2.00000000000000000000e+02 0.00000000000000000000e+00
1.04729122196191542571e+03 2.60101711308334415662e+02 0.00000000000000000000e+00
5.31323857471518749662e+02 2.40794170744093150915e+02 0.00000000000000000000e+00
8.38854946335203067065e+02 1.00000000000000000000e+03 0.00000000000000000000e+00
7.78968678257013493749e+02 1.00000000000000000000e+03 0.00000000000000000000e+00
1.01767244839209911333e+03 9.37746159084891019120e+02 0.00000000000000000000e+00
1.15665198223842367042e+03 3.43348017761576329576e+02 0.00000000000000000000e+00
1.10450597710723150158e+03 8.54970081902093170356e+02 0.00000000000000000000e+00
1.07046422216125574778e+03 9.08859559716359171944e+02 0.00000000000000000000e+00
4.08697590079718850120e+02 6.56250496075081059644e+02 0.00000000000000000000e+00
1.20089005988374151457e+03 4.47195345875076270659e+02 0.00000000000000000000e+00
5.12865994883906182622e+02 8.69409528053424764948e+02 0.00000000000000000000e+00
9.63612351909752533174e+02 2.00000000000000000000e+02 0.00000000000000000000e+00
1.03636364000000003216e+03 2.00000000000000000000e+02 0.00000000000000000000e+00
3.82816191727877708217e+02 5.21065455370581162242e+02 0.00000000000000000000e+00
1.20379124926813892671e+03 5.06623573132485205406e+02 0.00000000000000000000e+00
4.22859595237844700932e+02 8.00000000000000000000e+02 0.00000000000000000000e+00
1.22904799383278418645e+03 6.61842988320436916183e+02 0.00000000000000000000e+00
1.21765707199282587681e+03 7.22762835604028168746e+02 0.00000000000000000000e+00
1.19823959231557864769e+03 8.00000000000000000000e+02 0.00000000000000000000e+00
1.15815004117758530811e+03 8.69825175292279027417e+02 0.00000000000000000000e+00
8.00000000000000000000e+02 1.15000000000000000000e+03 0.00000000000000000000e+00
8.77671977414760362990e+02 1.14029100282315516779e+03 0.00000000000000000000e+00
8.24885097373897792750e+02 1.08716032347873101571e+03 0.00000000000000000000e+00
3.82686287054880324376e+02 4.00000000000000000000e+02 0.00000000000000000000e+00
7.02960085039905493431e+02 1.00000000000000000000e+03 0.00000000000000000000e+00
7.27346521232301711279e+02 1.14091831515403782760e+03 0.00000000000000000000e+00
7.78080359672362988022e+02 1.05673327272475899008e+03 0.00000000000000000000e+00
4.00368952597958468687e+02 3.53820348535644370713e+02 0.00000000000000000000e+00
1.13416813419529034945e+03 2.97728801644265104187e+02 0.00000000000000000000e+00
9.74632874422974850859e+02 1.00000000000000000000e+03 0.00000000000000000000e+00
9.69036523836256833420e+02 1.12887043452046805214e+03 0.00000000000000000000e+00
9.10791548130370188119e+02 1.00000000000000000000e+03 0.00000000000000000000e+00
8.55405935171270698447e+02 1.04692405574361168874e+03 0.00000000000000000000e+00
3.42231348761586446017e+02 6.00000000000000000000e+02 0.00000000000000000000e+00
5.50934390198101368696e+02 9.49065609801898631304e+02 0.00000000000000000000e+00
5.74720498062053593458e+02 2.00000000000000000000e+02 0.00000000000000000000e+00
1.09836139622364271418e+03 2.52863653808676474455e+02 0.00000000000000000000e+00
6.60905371315719435188e+02 1.13261317141446488677e+03 0.00000000000000000000e+00
6.85681152564251419790e+02 1.07817688402794510694e+03 0.00000000000000000000e+00
6.41578188048077663552e+02 1.00000000000000000000e+03 0.00000000000000000000e+00
7.32204386286420685792e+02 0.00000000000000000000e+00 0.00000000000000000000e+00
7.94445291400591258935e+02 0.00000000000000000000e+00 0.00000000000000000000e+00
7.78241518412228288071e+02 1.12101406791146601449e+02 0.00000000000000000000e+00
4.15944949130514373792e+02 2.98593863506401362429e+02 0.00000000000000000000e+00
4.53694110559377236314e+02 2.49311235663825272013e+02 0.00000000000000000000e+00
1.26985031580469012624e+03 6.00000000000000000000e+02 0.00000000000000000000e+00
8.21059195638996243360e+02 4.92217844394476458092e+01 0.00000000000000000000e+00
8.64067974958964214238e+02 0.00000000000000000000e+00 0.00000000000000000000e+00
8.53133184524087141654e+02 1.16443472118592936226e+02 0.00000000000000000000e+00
3.63375232114563686991e+02 7.48060046191907076718e+02 0.00000000000000000000e+00
1.23894659051299868224e+03 4.00000000000000000000e+02 0.00000000000000000000e+00
3.53512374416939110233e+02 6.49918416391862137971e+02 0.00000000000000000000e+00
1.09981458165705225838e+03 2.00000000000000000000e+02 0.00000000000000000000e+00
5.62715810114055443591e+02 1.00000000000000000000e+03 0.00000000000000000000e+00
6.03576969609385741933e+02 1.12544712120117310405e+03 0.00000000000000000000e+00
6.27870141145758907442e+02 1.06824255422153100881e+03 0.00000000000000000000e+00
5.46074675667298492954e+02 1.11825933445841224056e+03 0.00000000000000000000e+00
6.67772047681960998489e+02 0.00000000000000000000e+00 0.00000000000000000000e+00
7.34800248725474148159e+02 5.42858413886101658363e+01 0.00000000000000000000e+00
7.01502735752934427182e+02 1.22192283695051699510e+02 0.00000000000000000000e+00
3.42494374172518917021e+02 4.44293855055393009934e+02 0.00000000000000000000e+00
3.83563415764965782273e+02 8.43798705501881158852e+02 0.00000000000000000000e+00
1.02416083821828487999e+03 1.32884596912106985656e+02 0.00000000000000000000e+00
1.20074222666065065823e+03 2.99257773339349398611e+02 0.00000000000000000000e+00
1.00000000000000000000e+03 0.00000000000000000000e+00 0.00000000000000000000e+00
9.25531893007488406511e+02 0.00000000000000000000e+00 0.00000000000000000000e+00
8.96139988951249165439e+02 5.31150653320901682264e+01 0.00000000000000000000e+00
9.35238350095137093376e+02 1.16907215224388224328e+02 0.00000000000000000000e+00
9.66507140687476521634e+02 5.00174232609942848171e+01 0.00000000000000000000e+00
1.27315581387696124693e+03 4.46045193157409471496e+02 0.00000000000000000000e+00
9.89215755731447757171e+02 1.05863026759847525682e+03 0.00000000000000000000e+00
1.03422460847601905698e+03 1.12072192394049739050e+03 0.00000000000000000000e+00
1.03498377325136470972e+03 1.00000000000000000000e+03 0.00000000000000000000e+00
1.06086959321453218763e+03 1.06412064212556288112e+03 0.00000000000000000000e+00
3.53753756643991096098e+02 8.00000000000000000000e+02 0.00000000000000000000e+00
1.29168943141896306770e+03 6.74749515379263698378e+02 0.00000000000000000000e+00
1.27664910658988287651e+03 7.30236488859921450967e+02 0.00000000000000000000e+00
6.04416744434840211397e+02 0.00000000000000000000e+00 0.00000000000000000000e+00
6.59397991195473537118e+02 5.37494787612613507122e+01 0.00000000000000000000e+00
6.23727154163440786760e+02 1.28517620843994166080e+02 0.00000000000000000000e+00
4.97971329069627699937e+02 2.00000000000000000000e+02 0.00000000000000000000e+00
1.16914940124601002935e+03 9.30321632982442679349e+02 0.00000000000000000000e+00
1.11751442891710507865e+03 9.44837979345306962387e+02 0.00000000000000000000e+00
1.12200498801368144086e+03 1.00000000000000000000e+03 0.00000000000000000000e+00
1.12368940456589530186e+03 1.10953882442926283147e+03 0.00000000000000000000e+00
3.05078331425843032321e+02 5.26234723294842638097e+02 0.00000000000000000000e+00
1.19526035270289594337e+03 2.42256528331435333712e+02 0.00000000000000000000e+00
3.26426701692798019394e+02 6.97267634318141858785e+02 0.00000000000000000000e+00
3.16994808938738401594e+02 4.00000000000000000000e+02 0.00000000000000000000e+00
5.00000000000000000000e+02 1.00000000000000000000e+03 0.00000000000000000000e+00
4.78421378977416338785e+02 1.10980267237217685761e+03 0.00000000000000000000e+00
5.65978527981930142232e+02 1.06039309728551165790e+03 0.00000000000000000000e+00
3.83013913079449196175e+02 2.48635984886736963517e+02 0.00000000000000000000e+00
3.59316917734580215438e+02 3.05470278385476603944e+02 0.00000000000000000000e+00
1.21963332918111314029e+03 3.51579683719383126572e+02 0.00000000000000000000e+00
1.30301807825866353596e+03 4.00000000000000000000e+02 0.00000000000000000000e+00
1.29656170548489012617e+03 5.33516131501409404336e+02 0.00000000000000000000e+00
4.48501533767814464682e+02 1.00000000000000000000e+03 0.00000000000000000000e+00
4.51182844823887762686e+02 9.23698733220725102910e+02 0.00000000000000000000e+00
4.54807058572970959176e+02 1.04519294142702892714e+03 0.00000000000000000000e+00
4.00000000000000000000e+02 1.10000000000000000000e+03 0.00000000000000000000e+00
1.20573725241420811471e+03 8.61084636754680445847e+02 0.00000000000000000000e+00
5.40459279815937065905e+02 0.00000000000000000000e+00 0.00000000000000000000e+00
5.45332741628643702825e+02 1.19906115401633073247e+02 0.00000000000000000000e+00
5.86444554921323970120e+02 5.30249483261278271584e+01 0.00000000000000000000e+00
1.05774208250842229972e+03 0.00000000000000000000e+00 0.00000000000000000000e+00
1.01300728344295248462e+03 7.15400517822337036478e+01 0.00000000000000000000e+00
2.80721230703291894315e+02 6.00000000000000000000e+02 0.00000000000000000000e+00
2.70458464073046400244e+02 6.55881759190014577143e+02 0.00000000000000000000e+00
1.09133773731712790322e+03 5.11217152586187495444e+01 0.00000000000000000000e+00
1.07449170726640522844e+03 1.07271854441833880855e+02 0.00000000000000000000e+00
1.12148621385885576274e+03 0.00000000000000000000e+00 0.00000000000000000000e+00
1.32997328611975990498e+03 6.00000000000000000000e+02 0.00000000000000000000e+00
4.36379638757595728293e+02 2.00000000000000000000e+02 0.00000000000000000000e+00
1.11772582889094724123e+03 1.42183877435341884166e+02 0.00000000000000000000e+00
1.16243558612061656277e+03 2.00000000000000000000e+02 0.00000000000000000000e+00
1.25622112806849531808e+03 8.00000000000000000000e+02 0.00000000000000000000e+00
1.31436865699809231955e+03 8.00000000000000000000e+02 0.00000000000000000000e+00
2.74998708512679286287e+02 4.47920588428156236205e+02 0.00000000000000000000e+00
1.33932673200528643065e+03 4.57111021666957526577e+02 0.00000000000000000000e+00
1.35346914586530056113e+03 6.70284194316587786489e+02 0.00000000000000000000e+00
1.34205137795183304661e+03 7.26400016287226435452e+02 0.00000000000000000000e+00
2.95882901078029192377e+02 7.46710117237450731409e+02 0.00000000000000000000e+00
1.21726407621002454107e+03 9.54302891996556240883e+02 0.00000000000000000000e+00
1.24637365525765108032e+03 2.53626344742348891259e+02 0.00000000000000000000e+00
2.91697288170372758032e+02 8.00000000000000000000e+02 0.00000000000000000000e+00
2.39370900039313568186e+02 7.24377932737181595257e+02 0.00000000000000000000e+00
3.30569271384986791418e+02 8.46891493835116193623e+02 0.00000000000000000000e+00
4.76067876823446795242e+02 0.00000000000000000000e+00 0.00000000000000000000e+00
5.12622153519067865091e+02 5.04029139631021294576e+01 0.00000000000000000000e+00
4.69266805205473815477e+02 1.16814941541469679009e+02 0.00000000000000000000e+00
3.78975895914172042467e+02 9.21273681951759272124e+02 0.00000000000000000000e+00
3.88561087502278894590e+02 1.00000000000000000000e+03 0.00000000000000000000e+00
2.75422195348855041175e+02 3.20579607980558193958e+02 0.00000000000000000000e+00
2.30000488092587858091e+02 5.14723353809183549856e+02 0.00000000000000000000e+00
3.09270675511702620497e+02 2.52529744852279463885e+02 0.00000000000000000000e+00
1.39072249835875368262e+03 5.44210016775811027401e+02 0.00000000000000000000e+00
1.18181819999999993342e+03 1.00000000000000000000e+03 0.00000000000000000000e+00
1.20000000000000000000e+03 1.10000000000000000000e+03 0.00000000000000000000e+00
3.49997118155499094883e+02 2.00000000000000000000e+02 0.00000000000000000000e+00
1.18087348617168368037e+03 0.00000000000000000000e+00 0.00000000000000000000e+00
1.14345657582334047220e+03 7.89814339997910650482e+01 0.00000000000000000000e+00
1.32609932626474892459e+03 3.28275945968350242765e+02 0.00000000000000000000e+00
1.40607248180411124849e+03 6.00000000000000000000e+02 0.00000000000000000000e+00
1.36194463403258191647e+03 4.00000000000000000000e+02 0.00000000000000000000e+00
1.39629346934202817465e+03 4.44555668304905736932e+02 0.00000000000000000000e+00
1.41590963062472746969e+03 4.95596359205621467936e+02 0.00000000000000000000e+00
1.29716055319052111372e+03 2.62237954616829483712e+02 0.00000000000000000000e+00
1.98899881005503033293e+02 6.00000000000000000000e+02 0.00000000000000000000e+00
2.45381646198978529583e+02 4.00000000000000000000e+02 0.00000000000000000000e+00
2.13102435504953717782e+02 6.71176606904050117919e+02 0.00000000000000000000e+00
1.28203368493758875957e+03 9.21658010336169013499e+02 0.00000000000000000000e+00
3.48659043251988293832e+02 0.00000000000000000000e+00 0.00000000000000000000e+00
4.10327642135033897830e+02 0.00000000000000000000e+00 0.00000000000000000000e+00
3.94223252930100045432e+02 1.18011003649091037460e+02 0.00000000000000000000e+00
4.32580516458113208955e+02 5.01621332311004692883e+01 0.00000000000000000000e+00
1.41544513393124111644e+03 6.68278505257973961307e+02 0.00000000000000000000e+00
1.40449340262928649281e+03 7.24397712179690188350e+02 0.00000000000000000000e+00
1.83808961026687967433e+02 7.42932117493796454255e+02 0.00000000000000000000e+00
2.19254580156022541360e+02 8.00000000000000000000e+02 0.00000000000000000000e+00
1.33792794229709193132e+03 8.72531334475236803883e+02 0.00000000000000000000e+00
1.37238898632645896214e+03 8.00000000000000000000e+02 0.00000000000000000000e+00
1.97265770979598613621e+02 4.39049281445556175640e+02 0.00000000000000000000e+00
1.25125654326972676245e+03 1.04949326135933915793e+03 0.00000000000000000000e+00
1.25749199839118182354e+03 1.00000000000000000000e+03 0.00000000000000000000e+00
1.29328509335802732494e+03 1.11166063666975333035e+03 0.00000000000000000000e+00
1.23596228612691083981e+03 2.00000000000000000000e+02 0.00000000000000000000e+00
1.30000000000000000000e+03 2.00000000000000000000e+02 0.00000000000000000000e+00
1.20859592012668576899e+03 5.08229906575654268863e+01 0.00000000000000000000e+00
1.24207205175382182460e+03 0.00000000000000000000e+00 0.00000000000000000000e+00
1.20698995717446905473e+03 1.14656091474517239703e+02 0.00000000000000000000e+00
3.25863784503328247411e+02 1.10926702693708398328e+03 0.00000000000000000000e+00
3.20386056596962760068e+02 1.00000000000000000000e+03 0.00000000000000000000e+00
1.57699348730764683069e+02 6.53557215921376496226e+02 0.00000000000000000000e+00
2.48560227214074302537e+02 2.49454671377948386635e+02 0.00000000000000000000e+00
2.46505353635948978308e+02 8.71112051039523748841e+02 0.00000000000000000000e+00
2.02195127346754929931e+02 3.34161608786298359064e+02 0.00000000000000000000e+00
1.44329932655072821035e+03 4.00000000000000000000e+02 0.00000000000000000000e+00
1.43013200718244843301e+03 8.00000000000000000000e+02 0.00000000000000000000e+00
2.73834175028416154873e+02 2.00000000000000000000e+02 0.00000000000000000000e+00
1.33505566724362597597e+03 1.64944332756374024029e+02 0.00000000000000000000e+00
1.35548227706486704847e+03 2.00000000000000000000e+02 0.00000000000000000000e+00
1.32830269219351748688e+03 1.00000000000000000000e+03 0.00000000000000000000e+00
1.30959866578285482319e+03 1.05237453287807488778e+03 0.00000000000000000000e+00
1.82292401568070857820e+02 8.47335697515904030297e+02 0.00000000000000000000e+00
1.58222851920198849029e+02 5.07377234855987410356e+02 0.00000000000000000000e+00
2.85771363828134667529e+02 0.00000000000000000000e+00 0.00000000000000000000e+00
3.52632145528686749003e+02 5.49352052270913233656e+01 0.00000000000000000000e+00
3.21619052838862842236e+02 1.25088295837043602887e+02 0.00000000000000000000e+00
1.46572385675615169021e+03 6.00000000000000000000e+02 0.00000000000000000000e+00
1.50278383611775836926e+02 4.00000000000000000000e+02 0.00000000000000000000e+00
1.37952758150496333656e+03 9.37617712686306163050e+02 0.00000000000000000000e+00
1.37700112883930023600e+03 2.42242896329324310045e+02 0.00000000000000000000e+00
1.39911756063931807148e+03 3.14055127947629614482e+02 0.00000000000000000000e+00
1.28318928637200258436e+02 6.00000000000000000000e+02 0.00000000000000000000e+00
0.00000000000000000000e+00 6.00000000000000000000e+02 0.00000000000000000000e+00
0.00000000000000000000e+00 5.32951213450889781598e+02 0.00000000000000000000e+00
1.60000000000000000000e+03 6.00000000000000000000e+02 0.00000000000000000000e+00
1.44768922161353270894e+03 5.48397995347356982165e+02 0.00000000000000000000e+00
1.60000000000000000000e+03 5.39436178923850775391e+02 0.00000000000000000000e+00
1.53844798374036486166e+03 6.00000000000000000000e+02 0.00000000000000000000e+00
1.46039481925418181163e+03 4.63643466048760842568e+02 0.00000000000000000000e+00
1.30160762618853118511e+03 0.00000000000000000000e+00 0.00000000000000000000e+00
1.27734040470035597536e+03 5.85162580207897207174e+01 0.00000000000000000000e+00
1.32047987079717358938e+03 1.07671557130482852926e+02 0.00000000000000000000e+00
2.76119101359927071826e+02 9.42947323624082969218e+02 0.00000000000000000000e+00
1.47705439606983259182e+03 6.75018686021053895274e+02 0.00000000000000000000e+00
1.53837391647253571136e+03 6.66342220442938582892e+02 0.00000000000000000000e+00
1.60000000000000000000e+03 6.69232282005441220463e+02 0.00000000000000000000e+00
1.46836346831884998210e+03 7.30446990600008803085e+02 0.00000000000000000000e+00
1.41359208539680321337e+03 8.91177997638722217744e+02 0.00000000000000000000e+00
1.30840577027679472621e+02 7.12818997769559928201e+02 0.00000000000000000000e+00
0.00000000000000000000e+00 6.64913528631082726861e+02 0.00000000000000000000e+00
9.52139594835974065745e+01 6.61012044323646250632e+02 0.00000000000000000000e+00
5.95713277512812098280e+01 6.00000000000000000000e+02 0.00000000000000000000e+00
4.91150058655468413349e+01 6.95612034437776401319e+02 0.00000000000000000000e+00
0.00000000000000000000e+00 4.68179970708792779988e+02 0.00000000000000000000e+00
1.17314573834838839161e+02 4.42190158178869921812e+02 0.00000000000000000000e+00
6.52436221417499240260e+01 5.31699180058736828869e+02 0.00000000000000000000e+00
5.04489516792993271110e+01 4.38564880413338698872e+02 0.00000000000000000000e+00
1.68288860350611230388e+02 9.08745252738241902080e+02 0.00000000000000000000e+00
1.60000000000000000000e+03 4.00000000000000000000e+02 0.00000000000000000000e+00
1.60000000000000000000e+03 4.61819636063668610859e+02 0.00000000000000000000e+00
1.54208079831251097858e+03 5.19433515694411994446e+02 0.00000000000000000000e+00
1.48402392757212879815e+02 8.00000000000000000000e+02 0.00000000000000000000e+00
8.25292221095005231746e+01 7.44411139991299251051e+02 0.00000000000000000000e+00
0.00000000000000000000e+00 7.32657504264910699021e+02 0.00000000000000000000e+00
1.73022414917708545090e+02 2.36917685549054937155e+02 0.00000000000000000000e+00
0.00000000000000000000e+00 4.00000000000000000000e+02 0.00000000000000000000e+00
8.20195500544963493894e+01 4.00000000000000000000e+02 0.00000000000000000000e+00
0.00000000000000000000e+00 3.37846531819283086406e+02 0.00000000000000000000e+00
2.11582114843394663239e+02 2.00000000000000000000e+02 0.00000000000000000000e+00
1.41923354992295435295e+03 2.00000000000000000000e+02 0.00000000000000000000e+00
1.53869144996662475933e+03 7.24368268160097727559e+02 0.00000000000000000000e+00
1.60000000000000000000e+03 7.31905659708516623141e+02 0.00000000000000000000e+00
1.60000000000000000000e+03 8.00000000000000000000e+02 0.00000000000000000000e+00
1.37489710630864829000e+03 1.25102893691351710004e+02 0.00000000000000000000e+00
1.33918929690245840902e+03 5.45414109365588117839e+01 0.00000000000000000000e+00
1.36413810539805217559e+03 0.00000000000000000000e+00 0.00000000000000000000e+00
2.24226691483075313727e+02 0.00000000000000000000e+00 0.00000000000000000000e+00
2.76286078872341420265e+02 5.62650746839869455584e+01 0.00000000000000000000e+00
2.34666603184285605721e+02 1.19009441349188222148e+02 0.00000000000000000000e+00
2.54389736178206959494e+02 1.11820128297772430415e+03 0.00000000000000000000e+00
2.75859820420114999706e+02 1.04995225228142749074e+03 0.00000000000000000000e+00
2.50877671085819912378e+02 1.00000000000000000000e+03 0.00000000000000000000e+00
0.00000000000000000000e+00 8.00000000000000000000e+02 0.00000000000000000000e+00
6.11450144946042186689e+01 8.00000000000000000000e+02 0.00000000000000000000e+00
1.15984946912089654347e+02 8.46552776192667693067e+02 0.00000000000000000000e+00
0.00000000000000000000e+00 8.66495627869127361009e+02 0.00000000000000000000e+00
1.60000000000000000000e+03 3.33157595841871170705e+02 0.00000000000000000000e+00
1.50169196228871828680e+03 4.00000000000000000000e+02 0.00000000000000000000e+00
1.54769665928314793746e+03 4.00000000000000000000e+02 0.00000000000000000000e+00
1.46340226368163848747e+03 2.48240191798725987837e+02 0.00000000000000000000e+00
1.54746448073431247394e+03 3.02456627425571014101e+02 0.00000000000000000000e+00
1.47079447988122478819e+03 3.31083785837862421886e+02 0.00000000000000000000e+00
1.60000000000000000000e+03 8.63173603184803141630e+02 0.00000000000000000000e+00
1.46830716363599549368e+03 8.52727753883460195539e+02 0.00000000000000000000e+00
1.54523284569324550830e+03 8.00000000000000000000e+02 0.00000000000000000000e+00
1.48731289057298090484e+03 8.00000000000000000000e+02 0.00000000000000000000e+00
1.43751027135312710925e+03 9.49337980288753897185e+02 0.00000000000000000000e+00
1.40043139080688297327e+03 1.00000000000000000000e+03 0.00000000000000000000e+00
1.36181769201823453841e+03 1.12022721150227926046e+03 0.00000000000000000000e+00
0.00000000000000000000e+00 2.77412809272817980855e+02 0.00000000000000000000e+00
1.30207724917823668420e+02 3.11848000957341810135e+02 0.00000000000000000000e+00
5.60396729690076895736e+01 3.55624494433454344744e+02 0.00000000000000000000e+00
1.53988455485799431699e+03 8.75027063332845841614e+02 0.00000000000000000000e+00
1.48029470029122330743e+03 9.09932485201279860121e+02 0.00000000000000000000e+00
1.42436459530531948303e+02 9.57785183041713025887e+02 0.00000000000000000000e+00
0.00000000000000000000e+00 9.30594287451551622325e+02 0.00000000000000000000e+00
1.08235031909956333607e+02 9.06627683152652593890e+02 0.00000000000000000000e+00
5.53263493169052722465e+01 8.53405769949341106440e+02 0.00000000000000000000e+00
0.00000000000000000000e+00 2.00000000000000000000e+02 0.00000000000000000000e+00
4.82935975716840246719e+01 2.52197602861760799442e+02 0.00000000000000000000e+00
1.04336268078973972706e+02 2.46664988370343422730e+02 0.00000000000000000000e+00
1.24620699914841210898e+02 2.00000000000000000000e+02 0.00000000000000000000e+00
1.52646379483161717872e+03 2.48805309013144551500e+02 0.00000000000000000000e+00
1.60000000000000000000e+03 2.00000000000000000000e+02 0.00000000000000000000e+00
1.60000000000000000000e+03 2.71713874812634912814e+02 0.00000000000000000000e+00
1.82139663938540650179e+02 1.00000000000000000000e+03 0.00000000000000000000e+00
1.29630591093452466112e+02 1.13379617611331855187e+03 0.00000000000000000000e+00
1.83390907267723775931e+02 1.06594624482157928469e+03 0.00000000000000000000e+00
1.88479074731190593184e+02 1.12644011565860137125e+03 0.00000000000000000000e+00
1.56637218605472781974e+02 0.00000000000000000000e+00 0.00000000000000000000e+00
2.11913434460461445497e+02 5.34941940442640557762e+01 0.00000000000000000000e+00
1.44651734582521567063e+03 1.41568073894048637840e+02 0.00000000000000000000e+00
1.48094334250520296337e+03 2.00000000000000000000e+02 0.00000000000000000000e+00
1.54214412003179108979e+03 2.00000000000000000000e+02 0.00000000000000000000e+00
1.60000000000000000000e+03 1.38506750565783789853e+02 0.00000000000000000000e+00
1.42253320235790556580e+03 0.00000000000000000000e+00 0.00000000000000000000e+00
1.41425481258356876424e+03 8.57451874164313210258e+01 0.00000000000000000000e+00
1.53892125269644861874e+03 9.34778066279825566198e+02 0.00000000000000000000e+00
1.60000000000000000000e+03 9.39850753925318826987e+02 0.00000000000000000000e+00
1.60000000000000000000e+03 1.00000000000000000000e+03 0.00000000000000000000e+00
0.00000000000000000000e+00 1.00000000000000000000e+03 0.00000000000000000000e+00
5.88900828681825458943e+01 9.45707902850356504132e+02 0.00000000000000000000e+00
1.12672399787436035012e+02 1.00000000000000000000e+03 0.00000000000000000000e+00
1.47785114773707755376e+03 1.00000000000000000000e+03 0.00000000000000000000e+00
1.43503384927230536050e+03 1.07493875026322348276e+03 0.00000000000000000000e+00
1.46040803456703770280e+03 1.13255100432087988338e+03 0.00000000000000000000e+00
1.54006419827603417616e+03 1.00000000000000000000e+03 0.00000000000000000000e+00
0.00000000000000000000e+00 6.48680436770778356959e+01 0.00000000000000000000e+00
0.00000000000000000000e+00 0.00000000000000000000e+00 0.00000000000000000000e+00
9.66166756844936713833e+01 0.00000000000000000000e+00 0.00000000000000000000e+00
1.29769159109735170432e+02 6.61966457686502280922e+01 0.00000000000000000000e+00
0.00000000000000000000e+00 1.42226944288295300112e+02 0.00000000000000000000e+00
1.52483382168504846277e+02 1.44286460175432210917e+02 0.00000000000000000000e+00
5.95391279635701096140e+01 2.00000000000000000000e+02 0.00000000000000000000e+00
5.83854401700862482016e+01 4.85918283510085018406e+01 0.00000000000000000000e+00
0.00000000000000000000e+00 1.05833317054975441351e+03 0.00000000000000000000e+00
0.00000000000000000000e+00 1.15000000000000000000e+03 0.00000000000000000000e+00
5.47520038231951104990e+01 1.00000000000000000000e+03 0.00000000000000000000e+00
6.14183409229936998486e+01 1.14232270738462580084e+03 0.00000000000000000000e+00
1.25649900949718855259e+02 1.07462619920623342296e+03 0.00000000000000000000e+00
4.58222646587421564845e+01 1.08559461319684919545e+03 0.00000000000000000000e+00
1.51641726875251561069e+03 1.05305410571164838984e+03 0.00000000000000000000e+00
1.51841918507063519428e+03 1.13980239813382945613e+03 0.00000000000000000000e+00
1.60000000000000000000e+03 1.08798219613308447151e+03 0.00000000000000000000e+00
1.60000000000000000000e+03 1.15000000000000000000e+03 0.00000000000000000000e+00
1.54928147169842259245e+03 1.09636760253729880787e+03 0.00000000000000000000e+00
1.45941551142978346434e+03 4.05844885702165001362e+01 0.00000000000000000000e+00
1.47808574575113220817e+03 9.76495298753957143845e+01 0.00000000000000000000e+00
1.52304108678201396287e+03 1.36788222793888138540e+02 0.00000000000000000000e+00
1.60000000000000000000e+03 7.50040181349888115392e+01 0.00000000000000000000e+00
1.50000000000000000000e+03 0.00000000000000000000e+00 0.00000000000000000000e+00
1.60000000000000000000e+03 0.00000000000000000000e+00 0.00000000000000000000e+00
1.54838721320721901975e+03 0.00000000000000000000e+00 0.00000000000000000000e+00
1.55146811795883422747e+03 5.33144979339143816333e+01 0.00000000000000000000e+00
$
% Edges (Indices to List of Points):
10: 0 3
0: 0 5
0: 0 1
0: 0 2
0: 0 4
10: 0 8
0: 9 0
0: 2 5
0: 9 1
0: 1 3
0: 3 5
0: 7 1
0: 1 10
0: 11 1
0: 2 6
0: 2 15
0: 4 2
0: 8 4
0: 3 13
10: 3 17
0: 7 3
0: 4 15
0: 4 16
0: 12 4
0: 5 6
0: 5 14
0: 13 5
0: 6 14
0: 6 25
0: 6 29
0: 15 6
-1: 9 11
-1: 8 12
0: 10 7
0: 7 17
0: 7 21
0: 27 7
10: 19 8
0: 8 22
-1: 9 8
0: 18 9
0: 9 26
0: 22 9
0: 10 21
0: 10 20
0: 11 10
-1: 11 20
0: 18 11
0: 12 16
-1: 12 23
0: 19 12
0: 17 13
0: 13 30
0: 13 14
0: 28 13
0: 23 16
0: 14 28
0: 14 25
0: 35 14
0: 15 29
0: 15 34
0: 16 15
0: 16 34
0: 24 16
0: 17 30
10: 17 33
0: 27 17
0: 18 20
0: 18 31
0: 18 26
0: 42 18
0: 22 19
0: 19 23
0: 21 27
0: 19 32
10: 19 38
0: 46 19
11: 29 25
0: 22 26
0: 20 21
-1: 20 39
0: 31 20
0: 21 39
0: 45 21
0: 46 22
0: 22 41
0: 37 22
0: 45 27
0: 23 24
-1: 23 40
0: 32 23
0: 40 24
0: 24 44
0: 34 24
0: 25 47
11: 25 35
0: 50 25
0: 37 26
0: 26 43
0: 42 26
0: 35 28
0: 27 33
0: 27 49
0: 36 27
0: 53 28
0: 28 48
0: 30 28
0: 29 47
0: 29 51
11: 34 29
0: 30 48
0: 30 52
0: 33 30
0: 39 45
9: 42 31
0: 45 36
9: 39 31
0: 31 61
0: 68 31
0: 32 40
0: 32 57
0: 38 32
0: 33 52
0: 33 49
10: 69 33
0: 34 51
11: 34 44
0: 62 34
0: 37 41
0: 35 50
11: 35 53
0: 72 35
0: 36 49
0: 36 70
0: 73 36
0: 55 37
0: 37 63
0: 43 37
0: 38 57
10: 38 65
0: 46 38
9: 39 54
-1: 39 60
0: 61 39
0: 44 40
-1: 40 58
0: 57 40
0: 44 62
0: 41 46
0: 41 59
0: 55 41
0: 68 42
0: 42 67
9: 43 42
0: 43 67
9: 43 63
0: 64 43
0: 44 78
11: 44 56
0: 58 44
0: 45 73
0: 45 82
0: 54 45
0: 53 48
0: 51 47
0: 46 65
0: 46 59
0: 74 46
0: 47 50
0: 47 66
0: 71 47
0: 48 75
0: 48 52
0: 79 48
0: 49 69
0: 49 77
0: 70 49
0: 50 72
0: 50 66
0: 76 50
0: 68 61
0: 51 71
0: 51 80
0: 62 51
-2: 58 56
0: 52 79
0: 52 84
0: 69 52
11: 53 75
0: 53 72
0: 87 53
9: 54 82
0: 54 60
0: 96 54
-2: 65 57
0: 63 55
0: 55 83
0: 59 55
0: 56 78
-2: 56 91
11: 86 56
0: 81 57
0: 57 85
-2: 58 57
-1: 58 86
0: 85 58
0: 60 96
0: 59 74
0: 59 100
0: 83 59
-1: 98 60
0: 60 97
0: 61 60
0: 61 97
0: 89 61
0: 78 62
0: 62 95
0: 80 62
0: 64 63
0: 63 88
9: 83 63
0: 71 66
0: 67 102
0: 64 67
0: 64 102
0: 88 64
0: 65 81
10: 65 108
-2: 74 65
0: 76 66
0: 66 104
0: 105 66
0: 67 103
0: 68 89
0: 67 93
0: 68 67
0: 93 68
0: 69 84
0: 69 77
10: 101 69
0: 70 77
0: 70 107
0: 73 70
0: 71 80
0: 71 112
0: 105 71
0: 72 87
0: 72 90
0: 76 72
0: 73 107
0: 73 82
0: 92 73
-2: 100 74
0: 74 94
0: 108 74
0: 79 75
11: 75 99
0: 75 109
0: 87 75
0: 76 90
0: 76 104
0: 113 76
0: 77 101
0: 77 122
0: 107 77
0: 78 95
0: 78 114
0: 91 78
0: 79 99
0: 79 111
0: 84 79
0: 80 112
0: 80 125
0: 95 80
0: 85 81
0: 81 128
0: 108 81
9: 82 92
0: 82 96
0: 124 82
0: 83 100
0: 83 88
0: 83 120
9: 106 83
0: 85 86
0: 84 111
0: 84 127
0: 101 84
0: 110 85
0: 85 123
0: 128 85
0: 88 102
11: 110 86
-1: 86 119
0: 91 86
0: 93 89
0: 93 117
0: 87 109
0: 87 90
0: 115 87
0: 88 118
0: 88 121
0: 120 88
0: 119 91
0: 89 97
0: 89 117
0: 138 89
0: 90 115
0: 90 113
0: 149 90
0: 108 94
-2: 91 114
0: 91 150
0: 142 91
0: 92 107
9: 92 129
0: 124 92
0: 93 103
0: 93 145
0: 116 93
0: 94 100
0: 94 131
0: 130 94
0: 95 125
0: 95 126
0: 114 95
0: 96 124
0: 96 148
0: 98 96
0: 99 111
0: 122 101
0: 138 97
0: 97 153
0: 98 97
0: 98 153
-1: 148 98
11: 99 137
0: 99 141
0: 109 99
0: 131 100
0: 100 132
-2: 106 100
0: 101 127
0: 101 165
10: 147 101
0: 102 118
0: 102 143
0: 103 102
0: 103 145
0: 143 103
12: 105 112
12: 104 113
0: 104 173
0: 104 156
12: 105 104
0: 105 162
0: 156 105
0: 120 106
-2: 106 133
9: 132 106
0: 129 107
0: 107 163
0: 122 107
0: 108 130
10: 108 159
0: 128 108
0: 110 123
0: 109 141
8: 116 145
3: 144 135
0: 109 157
0: 109 115
0: 158 109
0: 110 119
0: 110 208
11: 164 110
0: 111 137
0: 111 174
0: 127 111
0: 112 162
0: 112 181
12: 125 112
0: 113 173
12: 113 149
0: 193 113
-2: 114 126
0: 114 166
0: 150 114
0: 158 115
0: 115 194
0: 149 115
8: 116 117
0: 116 140
0: 146 116
0: 117 140
8: 138 117
2: 139 134
0: 143 118
0: 118 186
0: 121 118
0: 142 119
-1: 119 177
0: 208 119
0: 153 148
0: 120 121
0: 120 133
0: 196 120
0: 121 196
0: 186 121
0: 122 165
0: 122 163
0: 201 122
0: 164 123
0: 123 183
0: 128 123
0: 148 124
0: 124 212
0: 129 124
0: 212 129
0: 125 181
0: 125 176
12: 126 125
-2: 126 176
12: 166 126
0: 132 133
0: 127 174
0: 127 199
0: 147 127
0: 128 183
0: 128 210
0: 159 128
0: 129 163
0: 129 175
9: 188 129
0: 131 130
0: 159 130
0: 130 189
0: 190 130
0: 131 190
0: 131 230
0: 132 131
9: 132 230
0: 215 132
0: 133 196
-2: 133 195
0: 215 133
0: 134 140
0: 140 136
0: 146 140
0: 134 136
3: 135 134
0: 146 136
0: 135 146
0: 136 135
0: 137 174
11: 137 202
0: 141 137
2: 139 151
8: 153 138
0: 138 152
0: 140 138
0: 139 152
0: 140 139
0: 152 140
0: 141 157
0: 141 207
0: 202 141
0: 177 142
0: 142 200
0: 150 142
8: 186 143
3: 185 144
0: 143 184
8: 145 143
0: 144 184
0: 146 144
0: 145 184
0: 146 145
0: 184 146
0: 147 199
10: 147 221
0: 165 147
0: 148 212
-1: 148 203
0: 167 148
0: 149 193
12: 149 194
0: 217 149
0: 150 166
0: 150 229
0: 200 150
0: 158 194
2: 151 168
0: 152 153
0: 151 169
0: 152 151
0: 169 152
0: 153 169
8: 167 153
6: 154 171
0: 154 172
6: 155 154
0: 156 173
0: 155 172
0: 172 160
0: 156 172
0: 155 160
6: 161 155
0: 156 160
0: 162 156
0: 207 157
0: 157 206
0: 158 157
0: 158 227
0: 206 158
0: 159 210
10: 159 226
0: 189 159
0: 161 160
0: 160 180
0: 162 160
0: 161 180
6: 179 161
0: 162 180
0: 181 162
0: 163 201
0: 163 236
0: 188 163
0: 164 183
11: 164 209
0: 208 164
0: 186 196
0: 165 221
0: 165 222
0: 201 165
12: 229 166
0: 166 228
0: 176 166
8: 167 203
2: 168 170
0: 167 205
0: 169 167
0: 168 205
0: 169 168
0: 205 169
0: 170 205
2: 204 170
6: 171 191
0: 171 192
0: 172 171
0: 173 193
0: 172 192
0: 173 172
0: 192 173
0: 174 202
0: 174 232
0: 199 174
0: 228 176
0: 175 188
0: 175 241
0: 175 245
0: 212 175
0: 181 176
6: 219 178
-2: 176 220
0: 224 176
0: 177 200
-1: 177 238
0: 208 177
-2: 178 220
0: 179 180
0: 178 182
6: 179 178
0: 182 179
0: 180 182
0: 181 180
0: 220 182
0: 181 220
0: 182 181
0: 203 212
0: 210 183
0: 183 233
0: 209 183
0: 184 186
0: 184 185
0: 187 184
0: 185 187
3: 198 185
0: 186 187
8: 197 186
0: 198 187
0: 187 197
0: 188 236
0: 188 241
9: 239 188
0: 230 190
0: 226 189
0: 189 190
0: 189 235
0: 234 189
0: 190 235
0: 231 190
0: 215 195
6: 191 216
0: 191 218
0: 192 191
0: 193 217
0: 192 218
0: 193 192
0: 218 193
0: 194 217
12: 194 227
0: 244 194
0: 196 195
-2: 195 251
0: 237 195
0: 196 251
0: 197 196
8: 197 251
0: 198 197
0: 198 251
3: 252 198
0: 199 232
0: 199 248
0: 221 199
0: 200 229
0: 200 238
0: 280 200
0: 201 222
0: 201 236
0: 240 201
0: 208 209
0: 202 232
11: 202 263
0: 202 207
0: 247 202
8: 211 203
2: 204 214
-1: 203 213
0: 205 203
0: 204 213
0: 205 204
0: 213 205
0: 227 206
0: 206 253
0: 207 247
0: 206 249
0: 207 206
0: 249 207
0: 208 238
0: 208 256
0: 261 208
0: 209 256
0: 209 233
11: 258 209
0: 226 210
0: 210 250
0: 233 210
0: 211 213
0: 212 245
8: 211 246
0: 212 211
0: 246 212
0: 213 246
-1: 214 213
1: 214 285
0: 246 214
0: 237 215
0: 215 265
0: 230 215
0: 240 222
6: 216 242
0: 217 244
0: 216 243
0: 218 216
0: 217 243
0: 218 217
0: 243 218
0: 219 220
0: 219 223
6: 225 219
0: 220 223
0: 224 220
0: 221 248
10: 221 262
0: 222 221
0: 222 262
0: 264 222
0: 225 223
0: 223 255
0: 224 223
0: 224 255
0: 228 224
0: 225 255
6: 254 225
0: 226 250
10: 226 257
0: 234 226
0: 258 233
0: 227 244
12: 227 253
0: 268 227
0: 228 255
0: 228 284
0: 229 228
0: 229 284
12: 280 229
0: 230 265
9: 230 231
0: 274 230
0: 231 235
9: 231 275
0: 274 231
0: 232 263
0: 232 276
0: 248 232
0: 259 233
0: 233 260
0: 250 233
0: 234 257
0: 234 270
0: 234 271
0: 235 234
0: 235 271
0: 275 235
0: 236 240
0: 236 239
0: 273 236
0: 237 265
0: 237 278
0: 251 237
0: 280 238
-1: 238 281
0: 261 238
9: 239 273
0: 239 289
0: 241 239
0: 240 264
0: 240 272
0: 273 240
0: 241 289
0: 241 245
0: 319 241
0: 249 247
6: 242 267
0: 242 269
0: 243 242
0: 244 268
0: 243 269
0: 244 243
0: 269 244
0: 245 319
0: 245 286
0: 246 245
8: 246 286
0: 285 246
0: 247 288
0: 247 290
0: 263 247
0: 248 276
0: 248 299
0: 262 248
0: 249 288
0: 249 253
0: 293 249
0: 264 262
0: 250 260
0: 250 312
0: 257 250
0: 258 256
8: 278 251
0: 251 277
-2: 252 251
0: 252 277
4: 279 252
12: 253 293
0: 253 268
0: 302 253
0: 254 255
0: 254 282
6: 283 254
0: 255 282
0: 284 255
0: 256 261
0: 256 307
0: 306 256
0: 257 312
10: 257 303
0: 270 257
0: 258 307
0: 258 259
11: 291 258
0: 275 271
0: 260 259
0: 259 315
0: 291 259
0: 260 315
0: 312 260
0: 281 261
0: 261 295
0: 306 261
0: 262 299
0: 262 287
10: 308 262
0: 263 290
11: 263 304
0: 276 263
12: 295 281
0: 289 273
0: 278 265
0: 264 287
0: 264 272
0: 325 264
0: 265 274
0: 265 296
0: 305 265
0: 303 270
6: 266 300
6: 266 267
0: 301 266
0: 302 268
0: 267 301
0: 269 267
0: 268 301
0: 269 268
0: 301 269
0: 271 270
0: 270 323
0: 320 270
0: 271 323
0: 292 271
0: 272 325
0: 272 338
0: 273 272
9: 273 338
0: 298 273
0: 305 274
0: 274 324
0: 275 274
0: 275 324
9: 292 275
0: 286 319
0: 276 304
0: 276 299
0: 331 276
0: 288 293
0: 277 278
0: 277 297
0: 279 277
0: 278 297
8: 296 278
0: 279 297
4: 375 279
0: 280 284
-1: 281 294
0: 280 318
12: 281 280
0: 318 281
0: 283 282
0: 282 317
0: 284 282
0: 283 317
6: 316 283
0: 284 317
0: 318 284
1: 285 356
8: 286 358
0: 285 357
0: 286 285
0: 357 286
0: 287 308
0: 287 327
0: 325 287
0: 288 345
0: 288 341
0: 290 288
0: 291 307
0: 289 298
0: 289 334
0: 319 289
0: 290 341
0: 290 377
0: 304 290
0: 291 368
11: 291 364
0: 315 291
0: 292 323
0: 292 324
0: 292 370
9: 372 292
0: 306 295
12: 345 293
0: 293 355
0: 302 293
0: 318 294
-1: 294 350
0: 295 294
0: 295 350
12: 346 295
0: 296 305
8: 296 374
0: 297 296
0: 297 374
0: 375 297
0: 298 338
0: 298 334
0: 361 298
7: 330 310
0: 299 331
0: 299 332
0: 308 299
6: 300 353
0: 300 354
0: 301 300
0: 302 355
0: 301 354
0: 302 301
0: 354 302
0: 338 325
5: 311 313
0: 312 303
10: 303 314
0: 320 303
0: 331 304
11: 304 343
0: 377 304
0: 324 305
0: 305 373
0: 374 305
0: 346 306
0: 306 366
0: 307 306
0: 307 366
0: 368 307
7: 326 309
0: 308 332
10: 308 328
0: 327 308
0: 332 328
0: 310 332
10: 309 328
7: 310 309
0: 328 310
0: 320 314
0: 314 321
10: 311 314
5: 311 322
0: 321 311
0: 312 315
5: 336 313
0: 312 337
0: 314 312
0: 313 337
0: 314 313
0: 337 314
0: 315 337
0: 364 315
0: 316 317
0: 316 351
6: 352 316
0: 317 351
0: 318 317
0: 318 351
0: 350 318
0: 319 334
0: 319 392
0: 358 319
0: 320 321
0: 320 323
0: 347 320
0: 321 347
0: 322 321
0: 322 347
5: 348 322
0: 323 347
0: 372 323
0: 370 324
0: 324 380
0: 373 324
7: 326 340
0: 340 329
0: 325 327
0: 339 329
0: 325 339
0: 329 325
0: 326 329
0: 328 326
0: 327 329
0: 328 327
0: 329 328
0: 392 334
7: 330 342
0: 342 333
0: 343 333
0: 331 343
0: 330 333
0: 332 330
0: 331 333
0: 332 331
0: 333 332
0: 334 361
0: 334 381
0: 383 334
5: 335 363
11: 335 365
5: 336 335
0: 337 364
0: 336 365
0: 337 336
0: 365 337
0: 377 341
0: 338 339
9: 338 360
0: 361 338
7: 340 359
0: 339 360
0: 340 339
0: 360 340
0: 341 387
0: 341 388
0: 345 341
7: 342 344
0: 342 378
11: 343 342
0: 343 377
0: 378 343
0: 344 378
7: 376 344
0: 366 346
0: 345 355
12: 345 388
0: 419 345
0: 346 350
0: 346 398
12: 399 346
0: 372 347
0: 347 371
0: 348 347
0: 348 371
5: 349 348
9: 349 371
5: 369 349
0: 350 351
-1: 350 403
0: 398 350
0: 351 403
0: 352 351
6: 352 402
0: 403 352
6: 353 396
0: 353 397
0: 354 353
0: 354 397
0: 355 354
0: 355 397
0: 419 355
1: 395 356
0: 356 394
0: 357 356
8: 358 392
0: 357 394
0: 358 357
0: 394 358
7: 362 359
0: 359 384
9: 360 359
0: 360 361
0: 384 360
0: 361 384
0: 383 361
0: 362 384
7: 382 362
5: 363 391
0: 364 368
0: 363 367
0: 365 363
0: 364 367
11: 365 364
0: 367 365
0: 399 366
0: 391 367
0: 366 389
0: 368 366
0: 367 389
0: 368 367
0: 389 368
0: 380 370
0: 369 371
5: 369 405
0: 379 369
0: 370 379
0: 372 370
0: 371 379
9: 372 371
0: 379 372
0: 374 373
0: 373 410
0: 380 373
0: 392 381
0: 375 374
0: 374 411
8: 410 374
0: 375 411
4: 412 375
7: 376 385
0: 377 387
0: 376 386
0: 378 376
0: 377 386
0: 378 377
0: 386 378
0: 379 380
0: 379 404
0: 405 379
0: 380 404
0: 410 380
0: 381 383
7: 407 382
0: 381 408
0: 409 381
0: 382 408
0: 384 382
0: 383 408
0: 384 383
0: 408 384
0: 398 403
7: 385 418
12: 385 420
0: 386 385
0: 386 420
0: 387 386
0: 387 420
0: 388 387
12: 388 420
0: 419 388
0: 389 399
5: 390 401
0: 389 400
0: 391 389
12: 390 400
5: 391 390
0: 400 391
1: 393 425
8: 392 409
0: 392 426
0: 394 392
0: 393 426
1: 395 393
0: 394 426
0: 395 394
0: 426 395
6: 396 416
0: 396 417
0: 397 396
0: 397 419
0: 417 397
0: 434 398
0: 398 435
0: 399 398
0: 400 401
0: 399 435
12: 400 399
0: 435 400
0: 401 435
5: 436 401
0: 402 403
0: 402 433
6: 437 402
-1: 403 433
0: 434 403
0: 405 404
0: 404 413
0: 410 404
0: 405 413
5: 406 405
8: 406 413
5: 430 406
0: 407 408
8: 407 424
7: 422 407
0: 408 424
0: 409 408
8: 409 424
0: 426 409
8: 413 410
0: 410 428
0: 411 410
0: 411 428
0: 412 411
4: 412 429
0: 428 412
0: 413 428
0: 430 413
7: 418 414
0: 414 421
7: 415 414
0: 415 421
6: 416 415
0: 416 421
0: 417 416
0: 417 421
0: 419 417
0: 418 421
0: 420 418
0: 419 421
0: 420 419
0: 421 420
7: 423 422
0: 422 427
0: 424 422
0: 423 427
1: 425 423
0: 424 427
0: 426 424
0: 425 427
0: 426 425
0: 427 426
0: 429 428
0: 428 432
0: 430 428
0: 429 432
4: 431 429
0: 430 432
5: 431 430
0: 432 431
-1: 437 433
0: 433 440
0: 434 433
0: 434 435
0: 440 434
0: 435 440
0: 436 435
0: 436 440
5: 438 436
0: 437 440
6: 439 437
0: 438 440
6: 439 438
0: 440 439
$
% Faces (Indices to List of Edges):
1: 10 0 1 
1: 9 0 2 
1: 7 1 3 
1: 8 2 6 
1: 16 3 4 
1: 17 4 5 
1: 5 6 39 
1: 24 7 14 
1: 13 8 31 
1: 20 9 11 
1: 26 10 18 
1: 12 11 33 
1: 12 13 45 
1: 30 14 15 
1: 15 16 21 
1: 23 17 32 
1: 51 18 19 
1: 19 20 34 
1: 61 21 22 
1: 22 23 48 
1: 27 24 25 
1: 25 26 53 
1: 57 27 28 
1: 77 28 29 
1: 29 30 59 
1: 47 31 40 
1: 50 32 37 
1: 35 33 43 
1: 66 34 36 
1: 73 35 36 
1: 38 37 71 
1: 38 39 42 
1: 41 40 69 
1: 41 42 78 
1: 79 43 44 
1: 44 45 46 
1: 46 47 67 
1: 55 48 49 
1: 49 50 72 
1: 52 51 64 
1: 106 52 54 
1: 56 53 54 
1: 63 55 88 
1: 100 56 58 
1: 95 57 58 
1: 109 59 60 
1: 60 61 62 
1: 62 63 93 
1: 112 64 65 
1: 65 66 101 
1: 81 67 68 
1: 114 68 70 
1: 99 69 70 
1: 76 71 84 
1: 90 72 74 
1: 87 73 83 
1: 121 74 75 
1: 75 76 140 
1: 94 77 107 
1: 97 78 86 
1: 82 79 80 
1: 80 81 116 
1: 82 83 113 
1: 85 84 148 
1: 85 86 128 
1: 103 87 115 
1: 91 88 89 
1: 89 90 119 
1: 92 91 144 
1: 92 93 126 
1: 168 94 96 
1: 129 95 96 
1: 98 97 137 
1: 98 99 153 
1: 104 100 130 
1: 123 101 102 
1: 102 103 132 
1: 105 104 163 
1: 105 106 110 
1: 164 107 108 
1: 108 109 125 
1: 172 110 111 
1: 111 112 122 
1: 162 113 141 
1: 118 114 151 
1: 134 115 160 
1: 117 116 143 
1: 117 118 180 
1: 146 119 120 
1: 120 121 138 
1: 187 122 124 
1: 174 123 124 
1: 183 125 127 
1: 147 126 127 
1: 150 128 135 
1: 177 129 131 
1: 189 130 131 
1: 176 132 133 
1: 133 134 242 
1: 136 135 195 
1: 136 137 155 
1: 194 138 139 
1: 139 140 165 
1: 192 141 142 
1: 142 143 212 
1: 145 144 159 
1: 145 146 203 
1: 215 147 157 
1: 166 148 149 
1: 149 150 197 
1: 152 151 235 
1: 152 153 154 
1: 223 154 156 
1: 218 155 156 
1: 198 157 158 
1: 158 159 184 
1: 250 160 161 
1: 161 162 191 
1: 171 163 188 
1: 170 164 181 
1: 228 165 167 
1: 207 166 167 
1: 178 168 169 
1: 169 170 221 
1: 255 171 173 
1: 185 172 173 
1: 238 174 175 
1: 175 176 240 
1: 248 177 179 
1: 229 178 179 
1: 214 180 233 
1: 243 181 182 
1: 182 183 217 
1: 200 184 204 
1: 270 185 186 
1: 186 187 237 
1: 258 188 190 
1: 246 189 190 
1: 278 191 193 
1: 206 192 193 
1: 201 194 226 
1: 196 195 220 
1: 196 197 209 
1: 267 198 199 
1: 199 200 294 
1: 202 201 274 
1: 202 203 205 
1: 284 204 205 
1: 328 206 210 
1: 252 207 208 
1: 208 209 280 
1: 211 210 333 
1: 211 212 213 
1: 213 214 304 
1: 216 215 265 
1: 216 217 273 
1: 219 218 225 
1: 219 220 281 
1: 231 221 245 
1: 347 232 222 
1: 222 223 224 
1: 224 225 291 
1: 276 226 227 
1: 227 228 254 
1: 230 229 260 
1: 230 231 354 
1: 317 232 234 
1: 295 233 236 
1: 234 235 236 
1: 287 237 239 
1: 262 238 239 
1: 264 240 241 
1: 241 242 249 
1: 271 243 244 
1: 244 245 350 
1: 298 246 247 
1: 247 248 259 
1: 314 249 251 
1: 277 250 251 
1: 253 252 320 
1: 253 254 310 
1: 256 255 268 
1: 338 256 257 
1: 257 258 297 
1: 308 259 261 
1: 351 260 261 
1: 330 262 263 
1: 263 264 362 
1: 325 265 266 
1: 266 267 311 
1: 329 268 269 
1: 269 270 285 
1: 381 271 272 
1: 272 273 323 
1: 275 274 290 
1: 275 276 365 
1: 316 277 279 
1: 326 278 279 
1: 341 280 283 
1: 302 281 282 
1: 282 283 357 
1: 292 284 288 
1: 378 285 286 
1: 286 287 342 
1: 289 288 366 
1: 289 290 414 
1: 345 291 300 
1: 293 292 373 
1: 293 294 303 
1: 305 295 296 
1: 391 296 319 
1: 371 297 299 
1: 307 298 299 
1: 399 300 301 
1: 301 302 404 
1: 313 303 400 
1: 331 304 306 
1: 395 305 306 
1: 390 307 309 
1: 383 308 309 
1: 322 310 363 
1: 387 311 312 
1: 312 313 469 
1: 360 314 315 
1: 315 316 417 
1: 348 317 318 
1: 318 319 368 
1: 339 320 321 
1: 321 322 434 
1: 421 323 324 
1: 324 325 385 
1: 415 326 327 
1: 327 328 335 
1: 376 329 336 
1: 343 330 409 
1: 332 331 458 
1: 332 333 334 
1: 334 335 403 
1: 456 336 337 
1: 337 338 367 
1: 340 339 440 
1: 340 341 359 
1: 427 342 344 
1: 481 343 344 
1: 397 345 346 
1: 346 347 349 
1: 473 348 349 
1: 379 350 355 
1: 382 351 352 
1: 502 352 353 
1: 353 354 356 
1: 509 355 356 
1: 358 357 405 
1: 358 359 424 
1: 361 360 431 
1: 361 362 410 
1: 435 363 364 
1: 364 365 430 
1: 412 366 375 
1: 464 367 370 
1: 477 368 393 
1: 452 369 475 
1: 512 370 372 
1: 388 371 372 
1: 402 373 374 
1: 374 375 530 
1: 454 376 377 
1: 377 378 425 
1: 524 379 380 
1: 380 381 419 
1: 550 382 384 
1: 485 383 384 
1: 423 385 386 
1: 386 387 488 
1: 389 388 491 
1: 389 390 486 
1: 394 391 392 
1: 392 393 448 
1: 394 395 460 
1: 446 396 462 
1: 398 397 470 
1: 398 399 408 
1: 401 400 467 
1: 401 402 568 
1: 484 403 498 
1: 407 404 406 
1: 443 405 406 
1: 407 408 531 
1: 534 409 411 
1: 525 410 411 
1: 413 412 528 
1: 413 414 428 
1: 416 415 482 
1: 416 417 418 
1: 432 418 561 
1: 562 419 420 
1: 420 421 422 
1: 422 423 537 
1: 445 424 442 
1: 556 425 426 
1: 426 427 479 
1: 580 428 429 
1: 429 430 515 
1: 527 431 433 
1: 558 432 433 
1: 437 434 438 
1: 436 435 517 
1: 436 437 597 
1: 595 438 439 
1: 439 440 441 
1: 441 442 669 
1: 613 443 444 
1: 444 445 602 
1: 447 446 449 
1: 447 448 451 
1: 449 450 453 
1: 451 452 453 
1: 554 454 455 
1: 455 456 466 
1: 495 457 461 
1: 459 458 493 
1: 459 460 463 
1: 461 462 463 
1: 510 464 465 
1: 465 466 634 
1: 468 467 566 
1: 468 469 490 
1: 472 470 583 
1: 474 471 584 
1: 472 473 476 
1: 474 475 478 
1: 476 477 478 
1: 624 479 480 
1: 480 481 532 
1: 579 482 483 
1: 483 484 538 
1: 606 485 487 
1: 610 486 487 
1: 535 488 489 
1: 489 490 625 
1: 611 491 513 
1: 543 492 494 
1: 497 493 496 
1: 494 495 496 
1: 497 498 541 
1: 549 499 500 
1: 500 501 503 
1: 552 502 505 
1: 504 503 506 
1: 504 505 508 
1: 506 507 518 
1: 508 509 520 
1: 511 510 647 
1: 511 512 514 
1: 643 513 514 
1: 655 515 516 
1: 516 517 596 
1: 519 518 521 
1: 519 520 523 
1: 521 522 570 
1: 523 524 575 
1: 629 525 526 
1: 526 527 592 
1: 582 528 529 
1: 529 530 631 
1: 617 531 589 
1: 685 532 533 
1: 533 534 628 
1: 536 535 704 
1: 536 537 557 
1: 639 538 540 
1: 545 539 542 
1: 540 541 544 
1: 542 543 544 
1: 545 546 641 
1: 605 547 548 
1: 548 549 551 
1: 608 550 553 
1: 551 552 553 
1: 632 554 555 
1: 555 556 622 
1: 565 557 692 
1: 593 558 559 
1: 741 559 560 
1: 560 561 659 
1: 564 562 577 
1: 569 563 678 
1: 564 565 682 
1: 626 566 567 
1: 567 568 649 
1: 576 569 571 
1: 574 570 573 
1: 571 572 573 
1: 574 575 578 
1: 576 577 578 
1: 661 579 636 
1: 581 580 657 
1: 581 582 653 
1: 588 583 585 
1: 586 584 585 
1: 586 587 590 
1: 588 589 591 
1: 590 619 591 
1: 726 592 594 
1: 736 593 594 
1: 601 595 708 
1: 599 596 697 
1: 600 597 598 
1: 598 599 722 
1: 600 601 710 
1: 615 602 667 
1: 674 603 604 
1: 604 605 607 
1: 676 606 609 
1: 607 608 609 
1: 672 610 612 
1: 699 611 612 
1: 614 613 616 
1: 614 615 730 
1: 616 617 618 
1: 618 619 620 
1: 620 621 772 
1: 715 622 623 
1: 623 624 683 
1: 706 625 627 
1: 731 626 627 
1: 670 628 630 
1: 725 629 630 
1: 652 631 650 
1: 713 632 633 
1: 758 633 635 
1: 645 634 635 
1: 638 636 658 
1: 664 637 640 
1: 638 639 642 
1: 640 641 642 
1: 644 643 700 
1: 763 644 646 
1: 743 645 648 
1: 646 647 648 
1: 733 649 651 
1: 783 650 651 
1: 769 652 654 
1: 698 653 654 
1: 656 655 695 
1: 656 657 718 
1: 663 658 660 
1: 753 659 662 
1: 660 661 662 
1: 663 664 666 
1: 755 665 666 
1: 668 667 728 
1: 668 669 707 
1: 687 670 737 
1: 746 671 673 
1: 749 672 675 
1: 673 674 677 
1: 675 676 677 
1: 681 678 679 
1: 679 680 688 
1: 681 682 690 
1: 761 683 684 
1: 684 685 686 
1: 686 687 765 
1: 689 688 693 
1: 689 690 691 
1: 691 692 702 
1: 693 694 778 
1: 768 695 696 
1: 696 697 719 
1: 716 698 790 
1: 747 699 701 
1: 776 700 701 
1: 782 702 703 
1: 703 704 705 
1: 705 706 853 
1: 813 707 709 
1: 712 708 709 
1: 724 710 711 
1: 711 712 838 
1: 806 713 714 
1: 714 715 759 
1: 717 716 793 
1: 717 718 766 
1: 788 719 720 
1: 826 720 721 
1: 721 722 723 
1: 723 724 792 
1: 739 725 727 
1: 734 726 727 
1: 809 728 729 
1: 729 730 770 
1: 732 731 856 
1: 732 733 798 
1: 808 734 735 
1: 735 736 740 
1: 811 737 738 
1: 738 739 833 
1: 879 740 742 
1: 751 741 742 
1: 756 743 762 
1: 822 744 745 
1: 745 746 748 
1: 824 747 750 
1: 748 749 750 
1: 841 751 752 
1: 752 753 754 
1: 754 755 868 
1: 875 756 757 
1: 757 758 804 
1: 843 759 760 
1: 760 761 801 
1: 845 762 764 
1: 775 763 764 
1: 802 765 810 
1: 797 766 767 
1: 767 768 786 
1: 784 769 789 
1: 771 770 846 
1: 771 772 773 
1: 773 774 848 
1: 893 775 777 
1: 820 776 777 
1: 781 778 779 
1: 779 780 858 
1: 781 782 860 
1: 800 783 785 
1: 931 784 785 
1: 920 786 787 
1: 787 788 816 
1: 876 789 791 
1: 795 790 791 
1: 830 792 840 
1: 794 793 796 
1: 794 795 885 
1: 796 797 948 
1: 799 798 807 
1: 799 800 890 
1: 910 801 803 
1: 870 802 803 
1: 882 804 805 
1: 805 806 842 
1: 854 807 896 
1: 835 808 877 
1: 814 809 850 
1: 872 810 812 
1: 831 811 812 
1: 836 813 815 
1: 899 814 815 
1: 828 816 922 
1: 913 817 819 
1: 821 818 819 
1: 823 820 916 
1: 821 822 825 
1: 823 824 825 
1: 827 826 829 
1: 827 828 968 
1: 829 830 886 
1: 918 831 832 
1: 832 833 834 
1: 834 835 904 
1: 837 836 926 
1: 837 838 839 
1: 839 840 887 
1: 966 841 866 
1: 923 842 844 
1: 908 843 844 
1: 891 845 873 
1: 849 846 847 
1: 847 848 851 
1: 849 850 901 
1: 851 852 903 
1: 864 853 855 
1: 894 854 857 
1: 855 856 857 
1: 859 858 861 
1: 859 860 863 
1: 861 862 957 
1: 863 864 961 
1: 1058 865 867 
1: 1061 866 869 
1: 867 868 869 
1: 937 870 871 
1: 871 872 981 
1: 1020 873 874 
1: 874 875 880 
1: 933 876 883 
1: 905 877 878 
1: 878 879 964 
1: 1010 880 881 
1: 881 882 925 
1: 1073 883 884 
1: 884 885 956 
1: 975 886 889 
1: 976 887 888 
1: 888 889 1091 
1: 898 890 929 
1: 892 891 1029 
1: 892 893 914 
1: 895 894 963 
1: 895 896 897 
1: 897 898 1032 
1: 928 899 900 
1: 900 901 902 
1: 902 903 1099 
1: 1013 904 906 
1: 1000 905 906 
1: 939 907 996 
1: 998 908 909 
1: 909 910 935 
1: 1051 911 912 
1: 912 913 915 
1: 1053 914 917 
1: 915 916 917 
1: 983 918 1011 
1: 953 919 945 
1: 921 920 951 
1: 921 922 943 
1: 924 923 994 
1: 924 925 1024 
1: 927 926 978 
1: 927 928 1095 
1: 930 929 1028 
1: 930 931 932 
1: 932 933 1082 
1: 940 934 986 
1: 938 935 936 
1: 936 937 988 
1: 938 939 942 
1: 940 941 942 
1: 944 943 967 
1: 944 945 947 
1: 971 946 947 
1: 955 948 950 
1: 952 949 1008 
1: 950 951 954 
1: 952 953 954 
1: 955 956 1006 
1: 960 957 958 
1: 958 959 1046 
1: 960 961 962 
1: 962 963 1042 
1: 990 964 965 
1: 965 966 1059 
1: 970 967 969 
1: 974 968 969 
1: 970 971 972 
1: 972 973 1037 
1: 974 975 1035 
1: 977 976 1086 
1: 977 978 1097 
1: 980 979 985 
1: 980 1016 982 
1: 987 981 984 
1: 982 983 984 
1: 985 986 989 
1: 987 988 989 
1: 1001 990 1098 
1: 992 991 995 
1: 992 1023 993 
1: 993 994 997 
1: 995 996 999 
1: 997 998 999 
1: 1069 1000 1002 
1: 1116 1001 1002 
1: 1075 1003 1004 
1: 1004 1005 1007 
1: 1077 1006 1009 
1: 1007 1008 1009 
1: 1018 1010 1105 
1: 1015 1011 1012 
1: 1012 1013 1066 
1: 1065 1014 1017 
1: 1015 1016 1017 
1: 1132 1018 1019 
1: 1019 1020 1030 
1: 1026 1021 1022 
1: 1022 1023 1025 
1: 1109 1024 1025 
1: 1026 1027 1107 
1: 1034 1028 1079 
1: 1055 1029 1031 
1: 1134 1030 1031 
1: 1044 1032 1033 
1: 1033 1034 1158 
1: 1036 1035 1093 
1: 1036 1037 1038 
1: 1038 1039 1040 
1: 1040 1041 1087 
1: 1045 1042 1043 
1: 1043 1044 1125 
1: 1045 1046 1048 
1: 1165 1047 1048 
1: 1153 1049 1050 
1: 1050 1051 1052 
1: 1052 1053 1054 
1: 1054 1055 1154 
1: 1057 1056 1149 
1: 1057 1058 1060 
1: 1145 1059 1062 
1: 1060 1061 1062 
1: 1064 1063 1070 
1: 1064 1065 1067 
1: 1068 1066 1067 
1: 1068 1069 1123 
1: 1070 1071 1121 
1: 1080 1072 1074 
1: 1084 1073 1076 
1: 1074 1075 1078 
1: 1076 1077 1078 
1: 1081 1079 1135 
1: 1083 1080 1138 
1: 1081 1082 1085 
1: 1083 1084 1085 
1: 1090 1086 1111 
1: 1092 1087 1089 
1: 1113 1088 1089 
1: 1090 1091 1094 
1: 1092 1093 1094 
1: 1096 1095 1101 
1: 1096 1097 1115 
1: 1119 1098 1143 
1: 1100 1099 1102 
1: 1100 1101 1186 
1: 1102 1103 1188 
1: 1128 1104 1106 
1: 1130 1105 1108 
1: 1106 1107 1110 
1: 1108 1109 1110 
1: 1114 1111 1112 
1: 1112 1113 1170 
1: 1114 1115 1172 
1: 1122 1116 1118 
1: 1120 1117 1177 
1: 1118 1119 1181 
1: 1120 1121 1124 
1: 1122 1123 1124 
1: 1169 1125 1156 
1: 1203 1126 1127 
1: 1127 1128 1129 
1: 1129 1130 1131 
1: 1131 1132 1133 
1: 1133 1134 1205 
1: 1161 1135 1137 
1: 1159 1136 1139 
1: 1137 1138 1141 
1: 1139 1140 1141 
1: 1215 1142 1146 
1: 1183 1143 1144 
1: 1144 1145 1148 
1: 1146 1147 1150 
1: 1148 1149 1150 
1: 1199 1151 1152 
1: 1152 1153 1155 
1: 1201 1154 1155 
1: 1157 1156 1228 
1: 1157 1158 1160 
1: 1163 1159 1162 
1: 1160 1161 1162 
1: 1163 1164 1231 
1: 1168 1165 1166 
1: 1166 1167 1225 
1: 1168 1169 1227 
1: 1171 1170 1173 
1: 1171 1172 1184 
1: 1173 1174 1175 
1: 1175 1176 1192 
1: 1180 1177 1178 
1: 1178 1179 1209 
1: 1180 1181 1182 
1: 1182 1183 1213 
1: 1185 1184 1191 
1: 1185 1186 1187 
1: 1187 1188 1190 
1: 1217 1189 1190 
1: 1191 1192 1219 
1: 1194 1193 1202 
1: 1194 1195 1196 
1: 1196 1197 1198 
1: 1198 1199 1200 
1: 1200 1201 1204 
1: 1202 1203 1206 
1: 1204 1205 1206 
1: 1208 1207 1210 
1: 1208 1209 1212 
1: 1210 1211 1214 
1: 1212 1213 1216 
1: 1214 1215 1216 
1: 1218 1217 1220 
1: 1218 1219 1222 
1: 1220 1221 1224 
1: 1222 1223 1224 
1: 1226 1225 1234 
1: 1226 1227 1229 
1: 1230 1228 1229 
1: 1230 1231 1232 
1: 1232 1233 1236 
1: 1234 1235 1238 
1: 1236 1237 1238 
$
% Checking Net ...
% F: 32.872001
% GN: 0.016141
%  Unused Vertices: none
%  Unused Edges: none
%  Inconsistent Vertices: none
%  Inconsistent Vertices (boundary): none
% Done.
%
