%% Version 3.0
%% VertexNumber: 127
%% EdgeNumber: 338
%% FaceNumber: 212
%% ElementNumber: 0
%% DO NOT CHANGE LINES ABOVE !!!!
% NET: Vertices <-> Edges <-> Faces <-> Elements
% Vertices: x y z
9.99200722162640886381e-16 0.00000000000000000000e+00 0.00000000000000000000e+00
-8.48835310025495282105e-02 0.00000000000000000000e+00 0.00000000000000000000e+00
8.48835310025420897162e-02 0.00000000000000000000e+00 0.00000000000000000000e+00
-4.87255437393418408543e-02 9.62325028530355425227e-02 0.00000000000000000000e+00
-4.87255437393354987052e-02 -9.62325028530342935218e-02 0.00000000000000000000e+00
4.87255437393483564756e-02 -9.62325028530387066583e-02 0.00000000000000000000e+00
4.87255437393468646134e-02 9.62325028530343212774e-02 0.00000000000000000000e+00
1.63291033375500216351e-01 0.00000000000000000000e+00 0.00000000000000000000e+00
-1.63291033375506489111e-01 0.00000000000000000000e+00 0.00000000000000000000e+00
-1.43954596480459134922e-01 9.49245500235542799539e-02 0.00000000000000000000e+00
-1.43954596480458302254e-01 -9.49245500235571665337e-02 0.00000000000000000000e+00
1.43954596480470181641e-01 9.49245500235621486596e-02 0.00000000000000000000e+00
1.43954596480469765307e-01 -9.49245500235523093080e-02 0.00000000000000000000e+00
2.90702070067420029253e-15 2.10879755319728384722e-01 0.00000000000000000000e+00
7.80307579659720484581e-15 -2.10879755319726330809e-01 0.00000000000000000000e+00
9.80024189776001197760e-02 -2.14498251778909576615e-01 0.00000000000000000000e+00
-9.80024189775929865931e-02 2.14498251778906523501e-01 0.00000000000000000000e+00
9.80024189775993287421e-02 2.14498251778910242749e-01 0.00000000000000000000e+00
-9.80024189775925008705e-02 -2.14498251778907855769e-01 0.00000000000000000000e+00
-2.44847850456000271091e-01 0.00000000000000000000e+00 0.00000000000000000000e+00
2.44847850455994331398e-01 0.00000000000000000000e+00 0.00000000000000000000e+00
-2.40600576990373765662e-01 9.63197562141202973107e-02 0.00000000000000000000e+00
-2.40600576990376707753e-01 -9.63197562141192287211e-02 0.00000000000000000000e+00
2.40600576990378262066e-01 -9.63197562141111379708e-02 0.00000000000000000000e+00
2.40600576990378983711e-01 9.63197562141057950225e-02 0.00000000000000000000e+00
3.21921486187209060503e-01 0.00000000000000000000e+00 0.00000000000000000000e+00
-3.21921486187215499797e-01 0.00000000000000000000e+00 0.00000000000000000000e+00
-2.09998528404240270007e-01 -2.06534939761998936891e-01 0.00000000000000000000e+00
2.09998528404240769607e-01 2.06534939762004210451e-01 0.00000000000000000000e+00
-2.09998528404238798961e-01 2.06534939761999436492e-01 0.00000000000000000000e+00
2.09998528404240825118e-01 -2.06534939762005570474e-01 0.00000000000000000000e+00
-4.79856231587626905600e-16 -5.00000000000000000000e-01 0.00000000000000000000e+00
4.29336826809785135570e-17 5.00000000000000000000e-01 0.00000000000000000000e+00
-5.00000000000000000000e-01 0.00000000000000000000e+00 0.00000000000000000000e+00
-3.95700214345279244199e-01 0.00000000000000000000e+00 0.00000000000000000000e+00
3.95700214345269474236e-01 0.00000000000000000000e+00 0.00000000000000000000e+00
5.00000000000000000000e-01 0.00000000000000000000e+00 0.00000000000000000000e+00
9.49417645619331090900e-02 -5.00000000000000000000e-01 0.00000000000000000000e+00
5.13261665222652790908e-02 -3.12168701086564803759e-01 0.00000000000000000000e+00
5.13261665222656260354e-02 3.12168701086565025804e-01 0.00000000000000000000e+00
9.49417645619326372453e-02 5.00000000000000000000e-01 0.00000000000000000000e+00
-5.13261665222661256358e-02 3.12168701086570354875e-01 0.00000000000000000000e+00
-9.49417645619357875031e-02 5.00000000000000000000e-01 0.00000000000000000000e+00
-4.47376057387172719501e-15 4.04616706061360076330e-01 0.00000000000000000000e+00
-9.49417645619369254817e-02 -5.00000000000000000000e-01 0.00000000000000000000e+00
-4.27163888099236762463e-15 -4.04616706061359632240e-01 0.00000000000000000000e+00
-5.13261665222657162411e-02 -3.12168701086570465897e-01 0.00000000000000000000e+00
3.29493396445380726245e-01 7.24157607471744568794e-02 0.00000000000000000000e+00
4.10691962668201793196e-01 6.24381159694757936762e-02 0.00000000000000000000e+00
5.00000000000000000000e-01 9.71633484471801645022e-02 0.00000000000000000000e+00
3.29493396445381281357e-01 -7.24157607471735964566e-02 0.00000000000000000000e+00
4.10691962668201959730e-01 -6.24381159694750234590e-02 0.00000000000000000000e+00
5.00000000000000000000e-01 -9.71633484471806641025e-02 0.00000000000000000000e+00
-5.00000000000000000000e-01 -9.71633484471813302363e-02 0.00000000000000000000e+00
-4.10691962668193077945e-01 -6.24381159694819207195e-02 0.00000000000000000000e+00
-3.29493396445377118020e-01 -7.24157607471707931435e-02 0.00000000000000000000e+00
-5.00000000000000000000e-01 9.71633484471821212702e-02 0.00000000000000000000e+00
-4.10691962668194743280e-01 6.24381159694811782579e-02 0.00000000000000000000e+00
-3.29493396445377728643e-01 7.24157607471707792657e-02 0.00000000000000000000e+00
-1.89646576043772246978e-01 -5.00000000000000000000e-01 0.00000000000000000000e+00
-1.18061478058811689107e-01 -4.04949092364679019695e-01 0.00000000000000000000e+00
-1.58180559687540051028e-01 -2.94074620395903263415e-01 0.00000000000000000000e+00
-1.58180559687540023273e-01 2.94074620395901598080e-01 0.00000000000000000000e+00
-1.89646576043773024134e-01 5.00000000000000000000e-01 0.00000000000000000000e+00
-1.18061478058811911152e-01 4.04949092364678409073e-01 0.00000000000000000000e+00
1.89646576043774522935e-01 -5.00000000000000000000e-01 0.00000000000000000000e+00
1.18061478058805124913e-01 -4.04949092364672746935e-01 0.00000000000000000000e+00
1.58180559687533223157e-01 -2.94074620395903540970e-01 0.00000000000000000000e+00
1.58180559687533500712e-01 2.94074620395905428349e-01 0.00000000000000000000e+00
1.18061478058807081681e-01 4.04949092364672691424e-01 0.00000000000000000000e+00
1.89646576043776576848e-01 5.00000000000000000000e-01 0.00000000000000000000e+00
-5.00000000000000000000e-01 -1.94323267176859465488e-01 0.00000000000000000000e+00
-4.03174014024851146143e-01 -1.45579830701898588208e-01 0.00000000000000000000e+00
-3.11223650428478659791e-01 -1.83538088791736192507e-01 0.00000000000000000000e+00
-5.00000000000000000000e-01 1.94323267176860159378e-01 0.00000000000000000000e+00
-4.03174014024852200855e-01 1.45579830701899781698e-01 0.00000000000000000000e+00
-3.11223650428477771612e-01 1.83538088791735359839e-01 0.00000000000000000000e+00
3.11223650428485432151e-01 1.83538088791745351847e-01 0.00000000000000000000e+00
4.03174014024851923299e-01 1.45579830701889512135e-01 0.00000000000000000000e+00
5.00000000000000000000e-01 1.94323267176856107064e-01 0.00000000000000000000e+00
3.11223650428484377439e-01 -1.83538088791742548533e-01 0.00000000000000000000e+00
4.03174014024853533122e-01 -1.45579830701891427269e-01 0.00000000000000000000e+00
5.00000000000000000000e-01 -1.94323267176856856464e-01 0.00000000000000000000e+00
2.19638603229980244880e-01 3.96455956263706499332e-01 0.00000000000000000000e+00
2.85332339955623404126e-01 5.00000000000000000000e-01 0.00000000000000000000e+00
2.19638603229977247278e-01 -3.96455956263706110754e-01 0.00000000000000000000e+00
2.85332339955622404926e-01 -5.00000000000000000000e-01 0.00000000000000000000e+00
-2.85332339955616742788e-01 -5.00000000000000000000e-01 0.00000000000000000000e+00
-2.19638603229980466924e-01 -3.96455956263699726971e-01 0.00000000000000000000e+00
-2.19638603229982354303e-01 3.96455956263699837994e-01 0.00000000000000000000e+00
-2.85332339955617242389e-01 5.00000000000000000000e-01 0.00000000000000000000e+00
2.72736381044747344671e-01 -2.88871599811992396667e-01 0.00000000000000000000e+00
4.01003160882773712625e-01 -2.33957646823719528362e-01 0.00000000000000000000e+00
5.00000000000000000000e-01 -2.93071195256850214328e-01 0.00000000000000000000e+00
2.72736381044746345470e-01 2.88871599811988399864e-01 0.00000000000000000000e+00
4.01003160882772713425e-01 2.33957646823719694895e-01 0.00000000000000000000e+00
5.00000000000000000000e-01 2.93071195256849548194e-01 0.00000000000000000000e+00
-5.00000000000000000000e-01 -2.93071195256851935174e-01 0.00000000000000000000e+00
-4.01003160882769826845e-01 -2.33957646823716280959e-01 0.00000000000000000000e+00
-2.72736381044745623825e-01 -2.88871599811988566398e-01 0.00000000000000000000e+00
-5.00000000000000000000e-01 2.93071195256852268241e-01 0.00000000000000000000e+00
-4.01003160882769549289e-01 2.33957646823717307916e-01 0.00000000000000000000e+00
-2.72736381044745401780e-01 2.88871599811990453777e-01 0.00000000000000000000e+00
3.11427434065765784688e-01 -3.96853214357080652519e-01 0.00000000000000000000e+00
4.04085274445321940284e-01 -3.39148976671590440812e-01 0.00000000000000000000e+00
3.82013524830901229912e-01 -5.00000000000000000000e-01 0.00000000000000000000e+00
5.00000000000000000000e-01 -4.00404969598551430110e-01 0.00000000000000000000e+00
5.00000000000000000000e-01 -5.00000000000000000000e-01 0.00000000000000000000e+00
4.31146722094931600378e-01 -4.39309078500132565992e-01 0.00000000000000000000e+00
3.11427434065764396909e-01 3.96853214357079486785e-01 0.00000000000000000000e+00
4.04085274445321496195e-01 3.39148976671591162457e-01 0.00000000000000000000e+00
3.82013524830899564577e-01 5.00000000000000000000e-01 0.00000000000000000000e+00
5.00000000000000000000e-01 4.00404969598551596643e-01 0.00000000000000000000e+00
5.00000000000000000000e-01 5.00000000000000000000e-01 0.00000000000000000000e+00
4.31146722094931378333e-01 4.39309078500133065592e-01 0.00000000000000000000e+00
-5.00000000000000000000e-01 -5.00000000000000000000e-01 0.00000000000000000000e+00
-5.00000000000000000000e-01 -4.00404969598548099441e-01 0.00000000000000000000e+00
-3.82013524830902617690e-01 -5.00000000000000000000e-01 0.00000000000000000000e+00
-4.04085274445327991000e-01 -3.39148976671590107745e-01 0.00000000000000000000e+00
-3.11427434065766117754e-01 -3.96853214357087091813e-01 0.00000000000000000000e+00
-4.31146722094931267311e-01 -4.39309078500133565193e-01 0.00000000000000000000e+00
-5.00000000000000000000e-01 4.00404969598547433307e-01 0.00000000000000000000e+00
-5.00000000000000000000e-01 5.00000000000000000000e-01 0.00000000000000000000e+00
-4.04085274445327546911e-01 3.39148976671590940413e-01 0.00000000000000000000e+00
-3.82013524830901229912e-01 5.00000000000000000000e-01 0.00000000000000000000e+00
-3.11427434065765562643e-01 3.96853214357087757946e-01 0.00000000000000000000e+00
-4.31146722094931766911e-01 4.39309078500134009282e-01 0.00000000000000000000e+00
$
% Edges (Indices to List of Points):
-1: 0 1
0: 0 3
0: 0 6
0: 0 4
0: 0 5
-1: 2 0
0: 1 9
0: 3 1
-1: 1 8
0: 1 10
0: 4 1
0: 2 5
0: 2 12
-1: 7 2
0: 2 11
0: 6 2
0: 5 4
0: 6 3
0: 9 3
0: 3 16
0: 13 3
0: 4 10
0: 4 18
0: 14 4
0: 5 14
0: 5 15
0: 12 5
0: 11 6
0: 6 17
0: 13 6
0: 7 24
0: 11 7
0: 8 21
0: 9 8
0: 7 12
0: 7 23
-1: 20 7
-1: 8 19
0: 8 22
0: 10 8
0: 9 21
0: 9 29
0: 16 9
0: 10 22
0: 10 18
0: 27 10
0: 17 11
0: 11 28
0: 24 11
0: 12 15
0: 12 30
0: 23 12
0: 14 15
0: 13 17
0: 13 16
0: 13 39
0: 41 13
0: 14 18
0: 14 38
0: 46 14
0: 38 15
0: 15 67
0: 30 15
0: 16 29
0: 16 62
0: 41 16
0: 39 17
0: 17 68
0: 28 17
0: 18 27
0: 18 61
0: 46 18
0: 19 55
0: 22 19
-1: 19 26
0: 19 58
0: 21 19
0: 20 47
0: 24 20
0: 23 20
0: 20 50
-1: 25 20
0: 21 58
0: 21 76
0: 29 21
0: 22 55
0: 22 27
0: 73 22
0: 23 30
0: 23 80
0: 50 23
0: 28 24
0: 24 77
0: 47 24
0: 25 50
-1: 25 35
0: 47 25
0: 26 55
-1: 26 34
0: 58 26
0: 73 27
0: 27 99
0: 61 27
0: 28 68
0: 28 94
0: 77 28
0: 76 29
0: 29 102
0: 62 29
0: 30 67
0: 30 91
0: 80 30
1: 31 44
0: 31 45
1: 37 31
0: 38 46
0: 39 41
3: 32 42
3: 32 40
0: 43 32
4: 33 53
0: 33 54
0: 34 54
0: 55 34
-1: 34 33
0: 33 57
4: 56 33
0: 34 57
0: 58 34
0: 35 48
0: 47 35
0: 36 48
2: 49 36
0: 50 35
0: 35 51
-1: 36 35
2: 36 52
0: 51 36
0: 37 45
0: 37 66
1: 65 37
0: 45 66
0: 38 45
0: 38 66
0: 67 38
0: 39 43
0: 39 69
0: 68 39
0: 43 69
0: 40 43
0: 40 69
3: 70 40
0: 62 41
3: 42 63
0: 41 64
0: 43 41
0: 42 64
0: 43 42
0: 64 43
1: 44 59
0: 44 60
0: 45 44
0: 45 60
0: 46 45
0: 46 60
0: 61 46
0: 47 77
0: 47 48
0: 78 47
0: 48 78
0: 49 48
2: 49 79
0: 78 49
0: 50 80
0: 50 51
0: 81 50
0: 51 81
0: 52 51
2: 52 82
0: 81 52
4: 53 71
0: 53 72
0: 54 53
0: 54 72
0: 55 54
0: 55 72
0: 73 55
4: 56 74
0: 56 75
0: 57 56
0: 57 75
0: 58 57
0: 58 75
0: 76 58
1: 87 59
0: 59 88
0: 60 59
0: 60 88
0: 61 60
0: 61 99
0: 88 61
0: 62 102
3: 63 90
0: 62 89
0: 64 62
0: 63 89
0: 64 63
0: 89 64
0: 65 66
0: 65 85
1: 86 65
0: 66 85
0: 67 66
0: 67 85
0: 91 67
0: 94 68
0: 68 83
0: 69 68
0: 69 83
0: 70 69
3: 70 84
0: 83 70
4: 97 71
0: 71 98
0: 72 71
0: 72 98
0: 73 72
0: 73 98
0: 99 73
4: 100 74
0: 74 101
0: 75 74
0: 75 101
0: 76 75
0: 76 101
0: 102 76
0: 94 77
0: 77 95
0: 78 77
0: 78 95
0: 79 78
0: 79 95
2: 96 79
0: 91 80
0: 80 92
0: 81 80
0: 81 92
0: 82 81
0: 82 92
2: 93 82
0: 83 94
0: 83 109
0: 84 83
0: 84 109
3: 111 84
0: 85 86
0: 85 103
0: 91 85
0: 86 103
1: 105 86
1: 87 117
0: 87 119
0: 88 87
0: 88 119
0: 99 88
0: 89 102
3: 90 124
0: 89 125
0: 90 89
0: 125 90
0: 91 103
0: 91 104
0: 92 91
2: 93 106
0: 92 104
0: 93 92
0: 104 93
0: 109 94
0: 94 110
0: 95 94
0: 95 110
0: 96 95
0: 96 110
2: 112 96
4: 97 116
0: 97 118
0: 98 97
0: 98 118
0: 99 98
0: 99 119
0: 118 99
0: 101 100
0: 100 123
4: 121 100
0: 101 123
0: 102 101
0: 102 123
0: 125 102
0: 105 103
0: 103 108
0: 104 103
0: 104 108
0: 106 104
0: 105 108
1: 107 105
0: 106 108
2: 107 106
0: 108 107
0: 110 109
0: 109 114
0: 111 109
0: 110 114
0: 112 110
0: 111 114
3: 113 111
0: 112 114
2: 113 112
0: 114 113
4: 115 116
0: 115 120
1: 117 115
0: 116 120
0: 118 116
0: 117 120
0: 119 117
0: 118 120
0: 119 118
0: 120 119
4: 122 121
0: 121 126
0: 123 121
0: 122 126
3: 124 122
0: 123 126
0: 125 123
0: 124 126
0: 125 124
0: 126 125
$
% Faces (Indices to List of Edges):
1: 10 0 3 
1: 7 0 1 
1: 17 1 2 
1: 2 5 15 
1: 16 3 4 
1: 4 5 11 
1: 33 8 6 
1: 6 7 18 
1: 39 8 9 
1: 9 10 21 
1: 26 11 12 
1: 12 13 34 
1: 14 13 31 
1: 14 15 27 
1: 23 16 24 
1: 20 17 29 
1: 19 18 42 
1: 19 20 54 
1: 44 21 22 
1: 22 23 57 
1: 52 24 25 
1: 25 26 49 
1: 28 27 46 
1: 28 29 53 
1: 30 36 78 
1: 30 31 48 
1: 76 37 32 
1: 32 33 40 
1: 51 34 35 
1: 35 36 79 
1: 73 37 38 
1: 38 39 43 
1: 84 40 41 
1: 41 42 63 
1: 86 43 45 
1: 69 44 45 
1: 47 46 68 
1: 47 48 91 
1: 62 49 50 
1: 50 51 88 
1: 60 52 58 
1: 66 53 55 
1: 65 54 56 
1: 116 55 56 
1: 71 57 59 
1: 115 58 59 
1: 61 60 144 
1: 61 62 109 
1: 108 63 64 
1: 64 65 152 
1: 67 66 147 
1: 67 68 103 
1: 102 69 70 
1: 70 71 165 
1: 97 74 72 
1: 72 73 85 
1: 99 74 75 
1: 75 76 82 
1: 77 81 96 
1: 77 78 93 
1: 80 79 90 
1: 80 81 94 
1: 193 82 83 
1: 83 84 106 
1: 186 85 87 
1: 100 86 87 
1: 111 88 89 
1: 89 90 173 
1: 92 91 105 
1: 92 93 166 
1: 133 94 95 
1: 95 96 130 
1: 123 97 98 
1: 98 99 128 
1: 101 100 228 
1: 101 102 199 
1: 215 103 104 
1: 104 105 236 
1: 107 106 235 
1: 107 108 201 
1: 214 109 110 
1: 110 111 243 
1: 161 112 113 
1: 113 114 138 
1: 163 115 142 
1: 155 116 145 
1: 157 117 119 
1: 149 118 119 
1: 182 120 121 
1: 121 124 122 
1: 122 123 184 
1: 125 124 127 
1: 125 126 189 
1: 127 128 191 
1: 129 135 131 
1: 129 130 167 
1: 131 132 170 
1: 134 133 174 
1: 134 135 137 
1: 177 136 137 
1: 141 138 139 
1: 139 140 208 
1: 141 142 143 
1: 143 144 212 
1: 148 145 146 
1: 146 147 217 
1: 148 149 150 
1: 150 151 219 
1: 154 152 204 
1: 206 153 156 
1: 154 155 158 
1: 156 157 158 
1: 196 159 160 
1: 160 161 162 
1: 162 163 164 
1: 164 165 198 
1: 238 166 168 
1: 169 167 168 
1: 169 170 172 
1: 240 171 172 
1: 245 173 175 
1: 176 174 175 
1: 176 177 179 
1: 247 178 179 
1: 224 180 181 
1: 181 182 183 
1: 183 184 185 
1: 185 186 226 
1: 231 187 188 
1: 188 189 190 
1: 190 191 192 
1: 192 193 233 
1: 195 194 262 
1: 195 196 197 
1: 197 198 200 
1: 264 199 200 
1: 265 201 203 
1: 268 202 205 
1: 203 204 207 
1: 205 206 207 
1: 211 208 209 
1: 209 210 255 
1: 211 212 213 
1: 213 214 257 
1: 216 215 250 
1: 216 217 218 
1: 218 219 221 
1: 252 220 221 
1: 223 222 286 
1: 223 224 225 
1: 225 226 227 
1: 227 228 288 
1: 230 229 291 
1: 230 231 232 
1: 232 233 234 
1: 234 235 295 
1: 237 236 279 
1: 237 238 239 
1: 239 240 241 
1: 241 242 281 
1: 244 243 272 
1: 244 245 246 
1: 246 247 248 
1: 248 249 275 
1: 277 250 251 
1: 251 252 253 
1: 253 254 310 
1: 258 255 256 
1: 256 257 270 
1: 258 259 298 
1: 324 260 261 
1: 261 262 263 
1: 263 264 289 
1: 297 265 267 
1: 336 266 269 
1: 267 268 269 
1: 300 270 271 
1: 271 272 274 
1: 302 273 276 
1: 274 275 276 
1: 278 277 308 
1: 278 279 280 
1: 280 281 282 
1: 282 283 312 
1: 322 284 285 
1: 285 286 287 
1: 287 288 290 
1: 326 289 290 
1: 292 291 294 
1: 292 293 330 
1: 294 295 296 
1: 296 297 334 
1: 299 298 303 
1: 299 300 301 
1: 301 302 305 
1: 303 304 307 
1: 305 306 307 
1: 309 308 311 
1: 309 310 313 
1: 311 312 315 
1: 313 314 317 
1: 315 316 317 
1: 321 318 319 
1: 319 320 323 
1: 321 322 325 
1: 323 324 327 
1: 325 326 327 
1: 329 328 331 
1: 329 330 333 
1: 331 332 335 
1: 333 334 337 
1: 335 336 337 
$
% Checking Net ...
% F: 77.386127
% GN: 60.790736
%  Unused Vertices: none
%  Unused Edges: none
%  Inconsistent Vertices: none
%  Inconsistent Vertices (boundary): none
% Done.
%
